{"code":0,"msg":"操作成功","data":{"total":800,"per_page":100,"current_page":1,"last_page":8,"data":[{"id":472656,"title":"大象传媒筋肉人爆操按摩师","status":1,"thumb":"https://imgmd.n123dx.xyz/doudou/madou_tv/dx_xvgvqcak/dx_xvgvqcak.jpg","preview":"https://imgmd.n123dx.xyz","panorama":"https://vvbacksixiuw.n123dx.xyz/doudou/madou_tv/dx_xvgvqcak/dx_xvgvqcak_longPreview.jpg","description":"","video_url":"https://m3md.n6uem8.xyz/doudou/madou_tv/dx_xvgvqcak/hls/1/index.m3u8","comefrom":81,"tags":[{"id":9,"name":"骑乘位"},{"id":11,"name":"白虎"},{"id":20,"name":"按摩"},{"id":47,"name":"美少女"},{"id":62,"name":"国产"},{"id":98,"name":"中文字幕"},{"id":99,"name":"热门推荐"}],"test_video_url":"/doudou/madou_tv/dx_xvgvqcak/hls/preview/index.m3u8","try_second":180,"is_bloger":0,"is_vip":1,"comefrom_title":"大象传媒"},{"id":472667,"title":"dx-010.小波多野结衣.变态巴士之美容师","status":1,"thumb":"https://imgmd.n123dx.xyz/doudou/madou_tv/dx_xutwruvh/dx_xutwruvh.jpg","preview":"https://imgmd.n123dx.xyz","panorama":"https://vvbacksixiuw.n123dx.xyz/doudou/madou_tv/dx_xutwruvh/dx_xutwruvh_longPreview.jpg","description":"","video_url":"https://m3md.n6uem8.xyz/doudou/madou_tv/dx_xutwruvh/hls/1/index.m3u8","comefrom":81,"tags":[{"id":9,"name":"骑乘位"},{"id":36,"name":"各种职业"},{"id":47,"name":"美少女"},{"id":62,"name":"国产"},{"id":98,"name":"中文字幕"},{"id":99,"name":"热门推荐"}],"test_video_url":"/doudou/madou_tv/dx_xutwruvh/hls/preview/index.m3u8","try_second":180,"is_bloger":0,"is_vip":1,"comefrom_title":"大象传媒"},{"id":472563,"title":"大象传媒直击毒枭淫乱派对","status":1,"thumb":"https://imgmd.n123dx.xyz/doudou/madou_tv/dx_vnqjerce/dx_vnqjerce.jpg","preview":"https://imgmd.n123dx.xyz/doudou/madou_tv/dx_vnqjerce/dx_vnqjerce_sync.webp","panorama":"https://vvbacksixiuw.n123dx.xyz/doudou/madou_tv/dx_vnqjerce/dx_vnqjerce_longPreview.jpg","description":"","video_url":"https://m3md.n6uem8.xyz/doudou/madou_tv/dx_vnqjerce/hls/1/index.m3u8","comefrom":81,"tags":[{"id":6,"name":"多P"},{"id":9,"name":"骑乘位"},{"id":38,"name":"激烈淫乱"},{"id":47,"name":"美少女"},{"id":62,"name":"国产"},{"id":98,"name":"中文字幕"},{"id":99,"name":"热门推荐"}],"test_video_url":"/doudou/madou_tv/dx_vnqjerce/hls/preview/index.m3u8","try_second":180,"is_bloger":0,"is_vip":1,"comefrom_title":"大象传媒"},{"id":472579,"title":"大象传媒狩猎醉酒女决战阳痿男","status":1,"thumb":"https://imgmd.n123dx.xyz/doudou/madou_tv/dx_vnpruekp/dx_vnpruekp.jpg","preview":"https://imgmd.n123dx.xyz/doudou/madou_tv/dx_vnpruekp/dx_vnpruekp_sync.webp","panorama":"https://vvbacksixiuw.n123dx.xyz/doudou/madou_tv/dx_vnpruekp/dx_vnpruekp_longPreview.jpg","description":"","video_url":"https://m3md.n6uem8.xyz/doudou/madou_tv/dx_vnpruekp/hls/1/index.m3u8","comefrom":81,"tags":[{"id":6,"name":"多P"},{"id":9,"name":"骑乘位"},{"id":47,"name":"美少女"},{"id":62,"name":"国产"},{"id":81,"name":"舔鲍"},{"id":98,"name":"中文字幕"},{"id":99,"name":"热门推荐"}],"test_video_url":"/doudou/madou_tv/dx_vnpruekp/hls/preview/index.m3u8","try_second":180,"is_bloger":0,"is_vip":1,"comefrom_title":"大象传媒"},{"id":472560,"title":"dx-008.变态巴士之披萨店的痴女店长","status":1,"thumb":"https://imgmd.n123dx.xyz/doudou/madou_tv/dx_vjsqsqgs/dx_vjsqsqgs.jpg","preview":"https://imgmd.n123dx.xyz/doudou/madou_tv/dx_vjsqsqgs/dx_vjsqsqgs_sync.webp","panorama":"https://vvbacksixiuw.n123dx.xyz/doudou/madou_tv/dx_vjsqsqgs/dx_vjsqsqgs_longPreview.jpg","description":"","video_url":"https://m3md.n6uem8.xyz/doudou/madou_tv/dx_vjsqsqgs/hls/1/index.m3u8","comefrom":81,"tags":[{"id":7,"name":"情趣内衣"},{"id":11,"name":"白虎"},{"id":30,"name":"痴女"},{"id":43,"name":"巨乳"},{"id":47,"name":"美少女"},{"id":62,"name":"国产"},{"id":98,"name":"中文字幕"},{"id":99,"name":"热门推荐"}],"test_video_url":"/doudou/madou_tv/dx_vjsqsqgs/hls/preview/index.m3u8","try_second":180,"is_bloger":0,"is_vip":1,"comefrom_title":"大象传媒"},{"id":472576,"title":"大象传媒淫骚人妻街头搭讪","status":1,"thumb":"https://imgmd.n123dx.xyz/doudou/madou_tv/dx_vmvbshdd/dx_vmvbshdd.jpg","preview":"https://imgmd.n123dx.xyz/doudou/madou_tv/dx_vmvbshdd/dx_vmvbshdd_sync.webp","panorama":"https://vvbacksixiuw.n123dx.xyz/doudou/madou_tv/dx_vmvbshdd/dx_vmvbshdd_longPreview.jpg","description":"","video_url":"https://m3md.n6uem8.xyz/doudou/madou_tv/dx_vmvbshdd/hls/1/index.m3u8","comefrom":81,"tags":[{"id":6,"name":"多P"},{"id":38,"name":"激烈淫乱"},{"id":45,"name":"人妻"},{"id":47,"name":"美少女"},{"id":62,"name":"国产"},{"id":76,"name":"玩具"},{"id":98,"name":"中文字幕"},{"id":99,"name":"热门推荐"}],"test_video_url":"/doudou/madou_tv/dx_vmvbshdd/hls/preview/index.m3u8","try_second":180,"is_bloger":0,"is_vip":1,"comefrom_title":"大象传媒"},{"id":472571,"title":"dx-005.坏坏性爱专车","status":1,"thumb":"https://imgmd.n123dx.xyz/doudou/madou_tv/dx_vhbffgxa/dx_vhbffgxa.jpg","preview":"https://imgmd.n123dx.xyz","panorama":"https://vvbacksixiuw.n123dx.xyz/doudou/madou_tv/dx_vhbffgxa/dx_vhbffgxa_longPreview.jpg","description":"","video_url":"https://m3md.n6uem8.xyz/doudou/madou_tv/dx_vhbffgxa/hls/1/index.m3u8","comefrom":81,"tags":[{"id":9,"name":"骑乘位"},{"id":11,"name":"白虎"},{"id":47,"name":"美少女"},{"id":62,"name":"国产"},{"id":99,"name":"热门推荐"}],"test_video_url":"/doudou/madou_tv/dx_vhbffgxa/hls/preview/index.m3u8","try_second":180,"is_bloger":0,"is_vip":1,"comefrom_title":"大象传媒"},{"id":472373,"title":"大象传媒淫贱拜金女情不比金","status":1,"thumb":"https://imgmd.n123dx.xyz/doudou/madou_tv/dx_snvcnubx/dx_snvcnubx.jpg","preview":"https://imgmd.n123dx.xyz/doudou/madou_tv/dx_snvcnubx/dx_snvcnubx_sync.webp","panorama":"https://vvbacksixiuw.n123dx.xyz/doudou/madou_tv/dx_snvcnubx/dx_snvcnubx_longPreview.jpg","description":"","video_url":"https://m3md.n6uem8.xyz/doudou/madou_tv/dx_snvcnubx/hls/1/index.m3u8","comefrom":81,"tags":[{"id":9,"name":"骑乘位"},{"id":11,"name":"白虎"},{"id":38,"name":"激烈淫乱"},{"id":43,"name":"巨乳"},{"id":47,"name":"美少女"},{"id":98,"name":"中文字幕"},{"id":99,"name":"热门推荐"}],"test_video_url":"/doudou/madou_tv/dx_snvcnubx/hls/preview/index.m3u8","try_second":180,"is_bloger":0,"is_vip":1,"comefrom_title":"大象传媒"},{"id":472367,"title":"大象传媒打开傻白甜妹子的潮吹开关","status":1,"thumb":"https://imgmd.n123dx.xyz/doudou/madou_tv/dx_sntapavn/dx_sntapavn.jpg","preview":"https://imgmd.n123dx.xyz/doudou/madou_tv/dx_sntapavn/dx_sntapavn_sync.webp","panorama":"https://vvbacksixiuw.n123dx.xyz/doudou/madou_tv/dx_sntapavn/dx_sntapavn_longPreview.jpg","description":"","video_url":"https://m3md.n6uem8.xyz/doudou/madou_tv/dx_sntapavn/hls/1/index.m3u8","comefrom":81,"tags":[{"id":7,"name":"情趣内衣"},{"id":21,"name":"COSPALY"},{"id":43,"name":"巨乳"},{"id":47,"name":"美少女"},{"id":62,"name":"国产"},{"id":71,"name":"女仆"},{"id":99,"name":"热门推荐"}],"test_video_url":"/doudou/madou_tv/dx_sntapavn/hls/preview/index.m3u8","try_second":180,"is_bloger":0,"is_vip":1,"comefrom_title":"大象传媒"},{"id":472350,"title":"dx-004.丝袜巨乳小母兔","status":1,"thumb":"https://imgmd.n123dx.xyz/doudou/madou_tv/dx_sngwxqbv/dx_sngwxqbv.jpg","preview":"https://imgmd.n123dx.xyz/doudou/madou_tv/dx_sngwxqbv/dx_sngwxqbv_sync.webp","panorama":"https://vvbacksixiuw.n123dx.xyz/doudou/madou_tv/dx_sngwxqbv/dx_sngwxqbv_longPreview.jpg","description":"","video_url":"https://m3md.n6uem8.xyz/doudou/madou_tv/dx_sngwxqbv/hls/1/index.m3u8","comefrom":81,"tags":[{"id":9,"name":"骑乘位"},{"id":43,"name":"巨乳"},{"id":46,"name":"裤袜"},{"id":47,"name":"美少女"},{"id":55,"name":"乳交"},{"id":62,"name":"国产"},{"id":99,"name":"热门推荐"}],"test_video_url":"/doudou/madou_tv/dx_sngwxqbv/hls/preview/index.m3u8","try_second":180,"is_bloger":0,"is_vip":1,"comefrom_title":"大象传媒"},{"id":472351,"title":"dx-004.不是车震是我的屁屁在震啦","status":1,"thumb":"https://imgmd.n123dx.xyz/doudou/madou_tv/dx_snavpxgf/dx_snavpxgf.jpg","preview":"https://imgmd.n123dx.xyz/doudou/madou_tv/dx_snavpxgf/dx_snavpxgf_sync.webp","panorama":"https://vvbacksixiuw.n123dx.xyz/doudou/madou_tv/dx_snavpxgf/dx_snavpxgf_longPreview.jpg","description":"","video_url":"https://m3md.n6uem8.xyz/doudou/madou_tv/dx_snavpxgf/hls/1/index.m3u8","comefrom":81,"tags":[{"id":9,"name":"骑乘位"},{"id":11,"name":"白虎"},{"id":43,"name":"巨乳"},{"id":47,"name":"美少女"},{"id":62,"name":"国产"},{"id":98,"name":"中文字幕"},{"id":99,"name":"热门推荐"}],"test_video_url":"/doudou/madou_tv/dx_snavpxgf/hls/preview/index.m3u8","try_second":180,"is_bloger":0,"is_vip":1,"comefrom_title":"大象传媒"},{"id":472189,"title":"大象传媒银家大院之夫人的吸哈教室","status":1,"thumb":"https://imgmd.n123dx.xyz/doudou/madou_tv/dx_qjhjrfba/dx_qjhjrfba.jpg","preview":"https://imgmd.n123dx.xyz/doudou/madou_tv/dx_qjhjrfba/dx_qjhjrfba_sync.webp","panorama":"https://vvbacksixiuw.n123dx.xyz/doudou/madou_tv/dx_qjhjrfba/dx_qjhjrfba_longPreview.jpg","description":"","video_url":"https://m3md.n6uem8.xyz/doudou/madou_tv/dx_qjhjrfba/hls/1/index.m3u8","comefrom":81,"tags":[{"id":9,"name":"骑乘位"},{"id":43,"name":"巨乳"},{"id":47,"name":"美少女"},{"id":62,"name":"国产"},{"id":81,"name":"舔鲍"},{"id":99,"name":"热门推荐"}],"test_video_url":"/doudou/madou_tv/dx_qjhjrfba/hls/preview/index.m3u8","try_second":180,"is_bloger":0,"is_vip":1,"comefrom_title":"大象传媒"},{"id":472187,"title":"大象传媒银家大院之你是谁啊","status":1,"thumb":"https://imgmd.n123dx.xyz/doudou/madou_tv/dx_qjfcrdet/dx_qjfcrdet.jpg","preview":"https://imgmd.n123dx.xyz/doudou/madou_tv/dx_qjfcrdet/dx_qjfcrdet_sync.webp","panorama":"https://vvbacksixiuw.n123dx.xyz/doudou/madou_tv/dx_qjfcrdet/dx_qjfcrdet_longPreview.jpg","description":"","video_url":"https://m3md.n6uem8.xyz/doudou/madou_tv/dx_qjfcrdet/hls/1/index.m3u8","comefrom":81,"tags":[{"id":9,"name":"骑乘位"},{"id":43,"name":"巨乳"},{"id":47,"name":"美少女"},{"id":62,"name":"国产"},{"id":99,"name":"热门推荐"}],"test_video_url":"/doudou/madou_tv/dx_qjfcrdet/hls/preview/index.m3u8","try_second":180,"is_bloger":0,"is_vip":1,"comefrom_title":"大象传媒"},{"id":472182,"title":"大象传媒现役空姐的AV初体验","status":1,"thumb":"https://imgmd.n123dx.xyz/doudou/madou_tv/dx_qgwkepxg/dx_qgwkepxg.jpg","preview":"https://imgmd.n123dx.xyz/doudou/madou_tv/dx_qgwkepxg/dx_qgwkepxg_sync.webp","panorama":"https://vvbacksixiuw.n123dx.xyz/doudou/madou_tv/dx_qgwkepxg/dx_qgwkepxg_longPreview.jpg","description":"","video_url":"https://m3md.n6uem8.xyz/doudou/madou_tv/dx_qgwkepxg/hls/1/index.m3u8","comefrom":81,"tags":[{"id":1,"name":"空姐"},{"id":9,"name":"骑乘位"},{"id":46,"name":"裤袜"},{"id":47,"name":"美少女"},{"id":62,"name":"国产"},{"id":76,"name":"玩具"},{"id":99,"name":"热门推荐"}],"test_video_url":"/doudou/madou_tv/dx_qgwkepxg/hls/preview/index.m3u8","try_second":180,"is_bloger":0,"is_vip":1,"comefrom_title":"大象传媒"},{"id":471532,"title":"dx-003.晨曦.情人节说送我保养品精液可以敷脸吗","status":1,"thumb":"https://imgmd.n123dx.xyz/doudou/madou_tv/dx_akavnahk/dx_akavnahk.jpg","preview":"https://imgmd.n123dx.xyz/doudou/madou_tv/dx_akavnahk/dx_akavnahk_sync.webp","panorama":"https://vvbacksixiuw.n123dx.xyz/doudou/madou_tv/dx_akavnahk/dx_akavnahk_longPreview.jpg","description":"","video_url":"https://m3md.n6uem8.xyz/doudou/madou_tv/dx_akavnahk/hls/1/index.m3u8","comefrom":81,"tags":[{"id":46,"name":"裤袜"},{"id":47,"name":"美少女"},{"id":53,"name":"自慰"},{"id":62,"name":"国产"},{"id":76,"name":"玩具"},{"id":98,"name":"中文字幕"},{"id":99,"name":"热门推荐"}],"test_video_url":"/doudou/madou_tv/dx_akavnahk/hls/preview/index.m3u8","try_second":180,"is_bloger":0,"is_vip":1,"comefrom_title":"大象传媒"},{"id":471512,"title":"da-011.男友视角下的恋人兔兔","status":1,"thumb":"https://imgmd.n123dx.xyz/doudou/madou_tv/dx_ajnvgabe/dx_ajnvgabe.jpg","preview":"https://imgmd.n123dx.xyz/doudou/madou_tv/dx_ajnvgabe/dx_ajnvgabe_sync.webp","panorama":"https://vvbacksixiuw.n123dx.xyz/doudou/madou_tv/dx_ajnvgabe/dx_ajnvgabe_longPreview.jpg","description":"","video_url":"https://m3md.n6uem8.xyz/doudou/madou_tv/dx_ajnvgabe/hls/1/index.m3u8","comefrom":81,"tags":[{"id":9,"name":"骑乘位"},{"id":11,"name":"白虎"},{"id":46,"name":"裤袜"},{"id":47,"name":"美少女"},{"id":62,"name":"国产"},{"id":99,"name":"热门推荐"}],"test_video_url":"/doudou/madou_tv/dx_ajnvgabe/hls/preview/index.m3u8","try_second":180,"is_bloger":0,"is_vip":1,"comefrom_title":"大象传媒"},{"id":471508,"title":"da-005.没钱买披萨只好帮外送员解决问题","status":1,"thumb":"https://imgmd.n123dx.xyz/doudou/madou_tv/dx_ajcfcftw/dx_ajcfcftw.jpg","preview":"https://imgmd.n123dx.xyz/doudou/madou_tv/dx_ajcfcftw/dx_ajcfcftw_sync.webp","panorama":"https://vvbacksixiuw.n123dx.xyz/doudou/madou_tv/dx_ajcfcftw/dx_ajcfcftw_longPreview.jpg","description":"","video_url":"https://m3md.n6uem8.xyz/doudou/madou_tv/dx_ajcfcftw/hls/1/index.m3u8","comefrom":81,"tags":[{"id":11,"name":"白虎"},{"id":36,"name":"各种职业"},{"id":43,"name":"巨乳"},{"id":47,"name":"美少女"},{"id":62,"name":"国产"},{"id":98,"name":"中文字幕"},{"id":99,"name":"热门推荐"}],"test_video_url":"/doudou/madou_tv/dx_ajcfcftw/hls/preview/index.m3u8","try_second":180,"is_bloger":0,"is_vip":1,"comefrom_title":"大象传媒"},{"id":471516,"title":"da-004.年假后期待见到火辣的女同事","status":1,"thumb":"https://imgmd.n123dx.xyz/doudou/madou_tv/dx_ahfkuhgh/dx_ahfkuhgh.jpg","preview":"https://imgmd.n123dx.xyz/doudou/madou_tv/dx_ahfkuhgh/dx_ahfkuhgh_sync.webp","panorama":"https://vvbacksixiuw.n123dx.xyz/doudou/madou_tv/dx_ahfkuhgh/dx_ahfkuhgh_longPreview.jpg","description":"","video_url":"https://m3md.n6uem8.xyz/doudou/madou_tv/dx_ahfkuhgh/hls/1/index.m3u8","comefrom":81,"tags":[{"id":9,"name":"骑乘位"},{"id":11,"name":"白虎"},{"id":43,"name":"巨乳"},{"id":47,"name":"美少女"},{"id":62,"name":"国产"},{"id":98,"name":"中文字幕"},{"id":99,"name":"热门推荐"}],"test_video_url":"/doudou/madou_tv/dx_ahfkuhgh/hls/preview/index.m3u8","try_second":180,"is_bloger":0,"is_vip":1,"comefrom_title":"大象传媒"},{"id":471534,"title":"AV-0049.那些年我们想上的短发班花","status":1,"thumb":"https://imgmd.n123dx.xyz/doudou/madou_tv/dx_agxutdtq/dx_agxutdtq.jpg","preview":"https://imgmd.n123dx.xyz/doudou/madou_tv/dx_agxutdtq/dx_agxutdtq_sync.webp","panorama":"https://vvbacksixiuw.n123dx.xyz/doudou/madou_tv/dx_agxutdtq/dx_agxutdtq_longPreview.jpg","description":"","video_url":"https://m3md.n6uem8.xyz/doudou/madou_tv/dx_agxutdtq/hls/1/index.m3u8","comefrom":81,"tags":[{"id":9,"name":"骑乘位"},{"id":11,"name":"白虎"},{"id":43,"name":"巨乳"},{"id":47,"name":"美少女"},{"id":62,"name":"国产"},{"id":98,"name":"中文字幕"},{"id":99,"name":"热门推荐"}],"test_video_url":"/doudou/madou_tv/dx_agxutdtq/hls/preview/index.m3u8","try_second":180,"is_bloger":0,"is_vip":1,"comefrom_title":"大象传媒"},{"id":449892,"title":"丰乳肥臀美少妇寂寞难耐勾引外卖小哥啪啪啪-害小哥下一单超时咯","status":1,"thumb":"https://imgmd.n123dx.xyz/doudou/doudou/wy_cgaqtusm/wy_cgaqtusm.jpg","preview":"https://imgmd.n123dx.xyz/doudou/doudou/wy_cgaqtusm/wy_cgaqtusm_sync.webp","panorama":"https://vvbacksixiuw.n123dx.xyz//doudou/doudou/wy_cgaqtusm/wy_cgaqtusm_longPreview.jpg","description":"","video_url":"https://m3md.n6uem8.xyz/doudou/doudou/wy_cgaqtusm/hls/1/index.m3u8","comefrom":81,"tags":[{"id":11,"name":"白虎"},{"id":43,"name":"巨乳"},{"id":47,"name":"美少女"},{"id":62,"name":"国产"},{"id":98,"name":"中文字幕"},{"id":99,"name":"热门推荐"}],"test_video_url":null,"try_second":180,"is_bloger":0,"is_vip":1,"comefrom_title":"大象传媒"},{"id":463108,"title":"大象传媒淫荡人妻家政妇","status":1,"thumb":"https://imgmd.n123dx.xyz/doudou/doudou/dx_ujbxqnpj/dx_ujbxqnpj.jpg","preview":"https://imgmd.n123dx.xyz/doudou/doudou/dx_ujbxqnpj/dx_ujbxqnpj_sync.webp","panorama":"https://vvbacksixiuw.n123dx.xyz//doudou/doudou/dx_ujbxqnpj/dx_ujbxqnpj_longPreview.jpg","description":"","video_url":"https://m3md.n6uem8.xyz/doudou/doudou/dx_ujbxqnpj/hls/1/index.m3u8","comefrom":81,"tags":[{"id":11,"name":"白虎"},{"id":36,"name":"各种职业"},{"id":45,"name":"人妻"},{"id":47,"name":"美少女"},{"id":62,"name":"国产"},{"id":99,"name":"热门推荐"}],"test_video_url":null,"try_second":180,"is_bloger":0,"is_vip":1,"comefrom_title":"大象传媒"},{"id":456323,"title":"WY0003小偷迷晕老公开始角色扮演","status":1,"thumb":"https://imgmd.n123dx.xyz/doudou/doudou/wy_jrpargjn/wy_jrpargjn.jpg","preview":"https://imgmd.n123dx.xyz/doudou/doudou/wy_jrpargjn/wy_jrpargjn_sync.webp","panorama":"https://vvbacksixiuw.n123dx.xyz//doudou/doudou/wy_jrpargjn/wy_jrpargjn_longPreview.jpg","description":"","video_url":"https://m3md.n6uem8.xyz/doudou/doudou/wy_jrpargjn/hls/1/index.m3u8","comefrom":81,"tags":[{"id":11,"name":"白虎"},{"id":46,"name":"裤袜"},{"id":47,"name":"美少女"},{"id":62,"name":"国产"},{"id":76,"name":"玩具"},{"id":81,"name":"舔鲍"},{"id":98,"name":"中文字幕"},{"id":99,"name":"热门推荐"}],"test_video_url":null,"try_second":180,"is_bloger":0,"is_vip":1,"comefrom_title":"大象传媒"},{"id":453690,"title":"禁忌恋之兄妹乱伦看片被妹妹发现骗玩游戏被爆操","status":1,"thumb":"https://imgmd.n123dx.xyz/doudou/doudou/wy_gmvmmgbw/wy_gmvmmgbw.jpg","preview":"https://imgmd.n123dx.xyz/doudou/doudou/wy_gmvmmgbw/wy_gmvmmgbw_sync.webp","panorama":"https://vvbacksixiuw.n123dx.xyz//doudou/doudou/wy_gmvmmgbw/wy_gmvmmgbw_longPreview.jpg","description":"","video_url":"https://m3md.n6uem8.xyz/doudou/doudou/wy_gmvmmgbw/hls/1/index.m3u8","comefrom":81,"tags":[{"id":11,"name":"白虎"},{"id":22,"name":"乱伦"},{"id":47,"name":"美少女"},{"id":62,"name":"国产"},{"id":98,"name":"中文字幕"},{"id":99,"name":"热门推荐"}],"test_video_url":null,"try_second":180,"is_bloger":0,"is_vip":1,"comefrom_title":"大象传媒"},{"id":452867,"title":"午夜入室小偷劫财又劫色打晕老公无套爆操女主内射","status":1,"thumb":"https://imgmd.n123dx.xyz/doudou/doudou/wy_gkgjcptm/wy_gkgjcptm.jpg","preview":"https://imgmd.n123dx.xyz/doudou/doudou/wy_gkgjcptm/wy_gkgjcptm_sync.webp","panorama":"https://vvbacksixiuw.n123dx.xyz//doudou/doudou/wy_gkgjcptm/wy_gkgjcptm_longPreview.jpg","description":"","video_url":"https://m3md.n6uem8.xyz/doudou/doudou/wy_gkgjcptm/hls/1/index.m3u8","comefrom":81,"tags":[{"id":11,"name":"白虎"},{"id":18,"name":"调教"},{"id":47,"name":"美少女"},{"id":62,"name":"国产"},{"id":76,"name":"玩具"},{"id":98,"name":"中文字幕"},{"id":99,"name":"热门推荐"}],"test_video_url":null,"try_second":180,"is_bloger":0,"is_vip":1,"comefrom_title":"大象传媒"},{"id":431010,"title":"美乳小姐的性爱玩弄","status":1,"thumb":"https://imgmd.n123dx.xyz/doudou/doudou/dx_gdcnnned/dx_gdcnnned.jpg","preview":"https://imgmd.n123dx.xyz/doudou/doudou/dx_gdcnnned/dx_gdcnnned_sync.webp","panorama":"https://vvbacksixiuw.n123dx.xyz//doudou/doudou/dx_gdcnnned/dx_gdcnnned_longPreview.jpg","description":"","video_url":"https://m3md.n6uem8.xyz/doudou/doudou/dx_gdcnnned/hls/1/index.m3u8","comefrom":81,"tags":[{"id":18,"name":"调教"},{"id":43,"name":"巨乳"},{"id":47,"name":"美少女"},{"id":62,"name":"国产"},{"id":99,"name":"热门推荐"}],"test_video_url":null,"try_second":180,"is_bloger":0,"is_vip":1,"comefrom_title":"大象传媒"},{"id":431026,"title":"绿帽老公为追求刺激邀请朋友操老婆最后委屈哭了","status":1,"thumb":"https://imgmd.n123dx.xyz/doudou/doudou/dx_gaxpprju/dx_gaxpprju.jpg","preview":"https://imgmd.n123dx.xyz/doudou/doudou/dx_gaxpprju/dx_gaxpprju_sync.webp","panorama":"https://vvbacksixiuw.n123dx.xyz//doudou/doudou/dx_gaxpprju/dx_gaxpprju_longPreview.jpg","description":"","video_url":"https://m3md.n6uem8.xyz/doudou/doudou/dx_gaxpprju/hls/1/index.m3u8","comefrom":81,"tags":[{"id":9,"name":"骑乘位"},{"id":11,"name":"白虎"},{"id":47,"name":"美少女"},{"id":62,"name":"国产"},{"id":99,"name":"热门推荐"}],"test_video_url":null,"try_second":180,"is_bloger":0,"is_vip":1,"comefrom_title":"大象传媒"},{"id":431028,"title":"母狗调教之极品嫩妹-BWMZ","status":1,"thumb":"https://imgmd.n123dx.xyz/doudou/doudou/dx_gatxhbfp/dx_gatxhbfp.jpg","preview":"https://imgmd.n123dx.xyz/doudou/doudou/dx_gatxhbfp/dx_gatxhbfp_sync.webp","panorama":"https://vvbacksixiuw.n123dx.xyz//doudou/doudou/dx_gatxhbfp/dx_gatxhbfp_longPreview.jpg","description":"","video_url":"https://m3md.n6uem8.xyz/doudou/doudou/dx_gatxhbfp/hls/1/index.m3u8","comefrom":81,"tags":[{"id":11,"name":"白虎"},{"id":46,"name":"裤袜"},{"id":47,"name":"美少女"},{"id":62,"name":"国产"},{"id":76,"name":"玩具"},{"id":99,"name":"热门推荐"}],"test_video_url":null,"try_second":180,"is_bloger":0,"is_vip":1,"comefrom_title":"大象传媒"},{"id":429706,"title":"挑鹑女互玩-辛尤里","status":1,"thumb":"https://imgmd.n123dx.xyz/doudou/doudou/dx_gaftwcwf/dx_gaftwcwf.jpg","preview":"https://imgmd.n123dx.xyz/doudou/doudou/dx_gaftwcwf/dx_gaftwcwf_sync.webp","panorama":"https://vvbacksixiuw.n123dx.xyz//doudou/doudou/dx_gaftwcwf/dx_gaftwcwf_longPreview.jpg","description":"","video_url":"https://m3md.n6uem8.xyz/doudou/doudou/dx_gaftwcwf/hls/1/index.m3u8","comefrom":81,"tags":[{"id":6,"name":"多P"},{"id":7,"name":"情趣内衣"},{"id":29,"name":"女女"},{"id":43,"name":"巨乳"},{"id":47,"name":"美少女"},{"id":62,"name":"国产"},{"id":99,"name":"热门推荐"}],"test_video_url":null,"try_second":180,"is_bloger":0,"is_vip":1,"comefrom_title":"大象传媒"},{"id":429718,"title":"情色舞-辛尤里","status":1,"thumb":"https://imgmd.n123dx.xyz/doudou/doudou/dx_fwgsmfes/dx_fwgsmfes.jpg","preview":"https://imgmd.n123dx.xyz/doudou/doudou/dx_fwgsmfes/dx_fwgsmfes_sync.webp","panorama":"https://vvbacksixiuw.n123dx.xyz//doudou/doudou/dx_fwgsmfes/dx_fwgsmfes_longPreview.jpg","description":"","video_url":"https://m3md.n6uem8.xyz/doudou/doudou/dx_fwgsmfes/hls/1/index.m3u8","comefrom":81,"tags":[{"id":7,"name":"情趣内衣"},{"id":43,"name":"巨乳"},{"id":47,"name":"美少女"},{"id":62,"name":"国产"},{"id":99,"name":"热门推荐"}],"test_video_url":null,"try_second":180,"is_bloger":0,"is_vip":1,"comefrom_title":"大象传媒"},{"id":429728,"title":"双飞姐妹花高跟美腿丝袜-斯文禽兽","status":1,"thumb":"https://imgmd.n123dx.xyz/doudou/doudou/dx_fvqtjqaa/dx_fvqtjqaa.jpg","preview":"https://imgmd.n123dx.xyz/doudou/doudou/dx_fvqtjqaa/dx_fvqtjqaa_sync.webp","panorama":"https://vvbacksixiuw.n123dx.xyz//doudou/doudou/dx_fvqtjqaa/dx_fvqtjqaa_longPreview.jpg","description":"","video_url":"https://m3md.n6uem8.xyz/doudou/doudou/dx_fvqtjqaa/hls/1/index.m3u8","comefrom":81,"tags":[{"id":6,"name":"多P"},{"id":7,"name":"情趣内衣"},{"id":46,"name":"裤袜"},{"id":47,"name":"美少女"},{"id":62,"name":"国产"},{"id":99,"name":"热门推荐"},{"id":101,"name":"口罩"}],"test_video_url":null,"try_second":180,"is_bloger":0,"is_vip":1,"comefrom_title":"大象传媒"},{"id":429731,"title":"SSS级甜美女神婕咪绝密视频流出","status":1,"thumb":"https://imgmd.n123dx.xyz/doudou/doudou/dx_fvdbatrx/dx_fvdbatrx.jpg","preview":"https://imgmd.n123dx.xyz/doudou/doudou/dx_fvdbatrx/dx_fvdbatrx_sync.webp","panorama":"https://vvbacksixiuw.n123dx.xyz//doudou/doudou/dx_fvdbatrx/dx_fvdbatrx_longPreview.jpg","description":"","video_url":"https://m3md.n6uem8.xyz/doudou/doudou/dx_fvdbatrx/hls/1/index.m3u8","comefrom":81,"tags":[{"id":9,"name":"骑乘位"},{"id":11,"name":"白虎"},{"id":43,"name":"巨乳"},{"id":47,"name":"美少女"},{"id":62,"name":"国产"},{"id":99,"name":"热门推荐"}],"test_video_url":null,"try_second":180,"is_bloger":0,"is_vip":1,"comefrom_title":"大象传媒"},{"id":428199,"title":"COS原始精录软绵绵胸部忍不住直接爆射","status":1,"thumb":"https://imgmd.n123dx.xyz/doudou/doudou/dx_fukdbrnr/dx_fukdbrnr.jpg","preview":"https://imgmd.n123dx.xyz/doudou/doudou/dx_fukdbrnr/dx_fukdbrnr_sync.webp","panorama":"https://vvbacksixiuw.n123dx.xyz//doudou/doudou/dx_fukdbrnr/dx_fukdbrnr_longPreview.jpg","description":"","video_url":"https://m3md.n6uem8.xyz/doudou/doudou/dx_fukdbrnr/hls/1/index.m3u8","comefrom":81,"tags":[{"id":21,"name":"COSPALY"},{"id":43,"name":"巨乳"},{"id":47,"name":"美少女"},{"id":55,"name":"乳交"},{"id":62,"name":"国产"},{"id":99,"name":"热门推荐"}],"test_video_url":null,"try_second":180,"is_bloger":0,"is_vip":1,"comefrom_title":"大象传媒"},{"id":428197,"title":"20岁天然E奶妹妹与哥哥乱伦","status":1,"thumb":"https://imgmd.n123dx.xyz/doudou/doudou/dx_fuchpdhr/dx_fuchpdhr.jpg","preview":"https://imgmd.n123dx.xyz/doudou/doudou/dx_fuchpdhr/dx_fuchpdhr_sync.webp","panorama":"https://vvbacksixiuw.n123dx.xyz//doudou/doudou/dx_fuchpdhr/dx_fuchpdhr_longPreview.jpg","description":"","video_url":"https://m3md.n6uem8.xyz/doudou/doudou/dx_fuchpdhr/hls/1/index.m3u8","comefrom":81,"tags":[{"id":11,"name":"白虎"},{"id":22,"name":"乱伦"},{"id":47,"name":"美少女"},{"id":62,"name":"国产"},{"id":81,"name":"舔鲍"},{"id":99,"name":"热门推荐"}],"test_video_url":null,"try_second":180,"is_bloger":0,"is_vip":1,"comefrom_title":"大象传媒"},{"id":456224,"title":"大象传媒蕾丝吊带裙粉嫩白虎穴","status":1,"thumb":"https://imgmd.n123dx.xyz/doudou/doudou/dx_khuegetk/dx_khuegetk.jpg","preview":"https://imgmd.n123dx.xyz/doudou/doudou/dx_khuegetk/dx_khuegetk_sync.webp","panorama":"https://vvbacksixiuw.n123dx.xyz//doudou/doudou/dx_khuegetk/dx_khuegetk_longPreview.jpg","description":"","video_url":"https://m3md.n6uem8.xyz/doudou/doudou/dx_khuegetk/hls/1/index.m3u8","comefrom":81,"tags":[{"id":11,"name":"白虎"},{"id":46,"name":"裤袜"},{"id":47,"name":"美少女"},{"id":53,"name":"自慰"},{"id":62,"name":"国产"},{"id":76,"name":"玩具"},{"id":98,"name":"中文字幕"},{"id":99,"name":"热门推荐"}],"test_video_url":null,"try_second":180,"is_bloger":0,"is_vip":1,"comefrom_title":"大象传媒"},{"id":456227,"title":"大象传媒艺术学院大奶校花私拍流出","status":1,"thumb":"https://imgmd.n123dx.xyz/doudou/doudou/dx_kheqrhme/dx_kheqrhme.jpg","preview":"https://imgmd.n123dx.xyz/doudou/doudou/dx_kheqrhme/dx_kheqrhme_sync.webp","panorama":"https://vvbacksixiuw.n123dx.xyz//doudou/doudou/dx_kheqrhme/dx_kheqrhme_longPreview.jpg","description":"","video_url":"https://m3md.n6uem8.xyz/doudou/doudou/dx_kheqrhme/hls/1/index.m3u8","comefrom":81,"tags":[{"id":12,"name":"女子校生"},{"id":43,"name":"巨乳"},{"id":47,"name":"美少女"},{"id":62,"name":"国产"},{"id":98,"name":"中文字幕"},{"id":99,"name":"热门推荐"}],"test_video_url":null,"try_second":180,"is_bloger":0,"is_vip":1,"comefrom_title":"大象传媒"},{"id":456312,"title":"大象传媒性爱机器人蒂法","status":1,"thumb":"https://imgmd.n123dx.xyz/doudou/doudou/dx_kgrfqujg/dx_kgrfqujg.jpg","preview":"https://imgmd.n123dx.xyz/doudou/doudou/dx_kgrfqujg/dx_kgrfqujg_sync.webp","panorama":"https://vvbacksixiuw.n123dx.xyz//doudou/doudou/dx_kgrfqujg/dx_kgrfqujg_longPreview.jpg","description":"","video_url":"https://m3md.n6uem8.xyz/doudou/doudou/dx_kgrfqujg/hls/1/index.m3u8","comefrom":81,"tags":[{"id":11,"name":"白虎"},{"id":47,"name":"美少女"},{"id":62,"name":"国产"},{"id":81,"name":"舔鲍"},{"id":98,"name":"中文字幕"},{"id":99,"name":"热门推荐"}],"test_video_url":null,"try_second":180,"is_bloger":0,"is_vip":1,"comefrom_title":"大象传媒"},{"id":457654,"title":"大象传媒调教极品空姐","status":1,"thumb":"https://imgmd.n123dx.xyz/doudou/doudou/dx_kjdtdkrc/dx_kjdtdkrc.jpg","preview":"https://imgmd.n123dx.xyz/doudou/doudou/dx_kjdtdkrc/dx_kjdtdkrc_sync.webp","panorama":"https://vvbacksixiuw.n123dx.xyz//doudou/doudou/dx_kjdtdkrc/dx_kjdtdkrc_longPreview.jpg","description":"","video_url":"https://m3md.n6uem8.xyz/doudou/doudou/dx_kjdtdkrc/hls/1/index.m3u8","comefrom":81,"tags":[{"id":18,"name":"调教"},{"id":36,"name":"各种职业"},{"id":47,"name":"美少女"},{"id":62,"name":"国产"},{"id":98,"name":"中文字幕"},{"id":99,"name":"热门推荐"}],"test_video_url":null,"try_second":180,"is_bloger":0,"is_vip":1,"comefrom_title":"大象传媒"},{"id":457688,"title":"大象传媒许久不见的巨乳蕾丝情侣趁休假终于可以疯狂做爱","status":1,"thumb":"https://imgmd.n123dx.xyz/doudou/doudou/dx_khvmsmdg/dx_khvmsmdg.jpg","preview":"https://imgmd.n123dx.xyz/doudou/doudou/dx_khvmsmdg/dx_khvmsmdg_sync.webp","panorama":"https://vvbacksixiuw.n123dx.xyz//doudou/doudou/dx_khvmsmdg/dx_khvmsmdg_longPreview.jpg","description":"","video_url":"https://m3md.n6uem8.xyz/doudou/doudou/dx_khvmsmdg/hls/1/index.m3u8","comefrom":81,"tags":[{"id":29,"name":"女女"},{"id":43,"name":"巨乳"},{"id":47,"name":"美少女"},{"id":62,"name":"国产"},{"id":81,"name":"舔鲍"},{"id":99,"name":"热门推荐"}],"test_video_url":null,"try_second":180,"is_bloger":0,"is_vip":1,"comefrom_title":"大象传媒"},{"id":463165,"title":"大象传媒极致拘束调教小母狗","status":1,"thumb":"https://imgmd.n123dx.xyz/doudou/doudou/dx_uhangmdb/dx_uhangmdb.jpg","preview":"https://imgmd.n123dx.xyz/doudou/doudou/dx_uhangmdb/dx_uhangmdb_sync.webp","panorama":"https://vvbacksixiuw.n123dx.xyz//doudou/doudou/dx_uhangmdb/dx_uhangmdb_longPreview.jpg","description":"","video_url":"https://m3md.n6uem8.xyz/doudou/doudou/dx_uhangmdb/hls/1/index.m3u8","comefrom":81,"tags":[{"id":18,"name":"调教"},{"id":47,"name":"美少女"},{"id":62,"name":"国产"},{"id":76,"name":"玩具"},{"id":99,"name":"热门推荐"}],"test_video_url":null,"try_second":180,"is_bloger":0,"is_vip":1,"comefrom_title":"大象传媒"},{"id":463167,"title":"大象传媒今天不修车修肉棒","status":1,"thumb":"https://imgmd.n123dx.xyz/doudou/doudou/dx_ucdxxwtj/dx_ucdxxwtj.jpg","preview":"https://imgmd.n123dx.xyz/doudou/doudou/dx_ucdxxwtj/dx_ucdxxwtj_sync.webp","panorama":"https://vvbacksixiuw.n123dx.xyz//doudou/doudou/dx_ucdxxwtj/dx_ucdxxwtj_longPreview.jpg","description":"","video_url":"https://m3md.n6uem8.xyz/doudou/doudou/dx_ucdxxwtj/hls/1/index.m3u8","comefrom":81,"tags":[{"id":43,"name":"巨乳"},{"id":47,"name":"美少女"},{"id":55,"name":"乳交"},{"id":62,"name":"国产"},{"id":99,"name":"热门推荐"}],"test_video_url":null,"try_second":180,"is_bloger":0,"is_vip":1,"comefrom_title":"大象传媒"},{"id":463249,"title":"大象传媒与师母的性爱极乐园","status":1,"thumb":"https://imgmd.n123dx.xyz/doudou/doudou/dx_ubbxdcjp/dx_ubbxdcjp.jpg","preview":"https://imgmd.n123dx.xyz/doudou/doudou/dx_ubbxdcjp/dx_ubbxdcjp_sync.webp","panorama":"https://vvbacksixiuw.n123dx.xyz//doudou/doudou/dx_ubbxdcjp/dx_ubbxdcjp_longPreview.jpg","description":"","video_url":"https://m3md.n6uem8.xyz/doudou/doudou/dx_ubbxdcjp/hls/1/index.m3u8","comefrom":81,"tags":[{"id":6,"name":"多P"},{"id":11,"name":"白虎"},{"id":47,"name":"美少女"},{"id":62,"name":"国产"},{"id":99,"name":"热门推荐"}],"test_video_url":null,"try_second":180,"is_bloger":0,"is_vip":1,"comefrom_title":"大象传媒"}]}}