{"code":0,"msg":"操作成功","data":{"total":800,"per_page":100,"current_page":1,"last_page":8,"data":[{"id":396478,"title":"女人试图在她的鞋收集-恋足","status":1,"thumb":"https://imgmd.n123dx.xyz/doudou/doudou/lz_jpqq68fc/lz_jpqq68fc.jpg","preview":"https://imgmd.n123dx.xyz/doudou/doudou/lz_jpqq68fc/lz_jpqq68fc_sync.webp","panorama":"https://vvbacksixiuw.n123dx.xyz//doudou/doudou/lz_jpqq68fc/lz_jpqq68fc_longPreview.jpg","description":"","video_url":"https://m3md.n6uem8.xyz/doudou/doudou/lz_jpqq68fc/hls/1/index.m3u8","comefrom":52,"tags":[{"id":28,"name":"修长"},{"id":42,"name":"熟女"},{"id":99,"name":"热门推荐"}],"test_video_url":null,"try_second":180,"is_bloger":0,"is_vip":1,"comefrom_title":"恋脚癖"},{"id":396486,"title":"女孩表现出性感的脚和脚交性玩具-恋足","status":1,"thumb":"https://imgmd.n123dx.xyz/doudou/doudou/lz_ggxp5ess/lz_ggxp5ess.jpg","preview":"https://imgmd.n123dx.xyz/doudou/doudou/lz_ggxp5ess/lz_ggxp5ess_sync.webp","panorama":"https://vvbacksixiuw.n123dx.xyz//doudou/doudou/lz_ggxp5ess/lz_ggxp5ess_longPreview.jpg","description":"","video_url":"https://m3md.n6uem8.xyz/doudou/doudou/lz_ggxp5ess/hls/1/index.m3u8","comefrom":52,"tags":[{"id":47,"name":"美少女"},{"id":76,"name":"玩具"},{"id":97,"name":"自拍"},{"id":99,"name":"热门推荐"}],"test_video_url":null,"try_second":180,"is_bloger":0,"is_vip":1,"comefrom_title":"恋脚癖"},{"id":396483,"title":"美丽的女孩舔脚-恋足特写镜头","status":1,"thumb":"https://imgmd.n123dx.xyz/doudou/doudou/lz_dyyjdwbn/lz_dyyjdwbn.jpg","preview":"https://imgmd.n123dx.xyz/doudou/doudou/lz_dyyjdwbn/lz_dyyjdwbn_sync.webp","panorama":"https://vvbacksixiuw.n123dx.xyz//doudou/doudou/lz_dyyjdwbn/lz_dyyjdwbn_longPreview.jpg","description":"","video_url":"https://m3md.n6uem8.xyz/doudou/doudou/lz_dyyjdwbn/hls/1/index.m3u8","comefrom":52,"tags":[{"id":47,"name":"美少女"},{"id":97,"name":"自拍"},{"id":99,"name":"热门推荐"}],"test_video_url":null,"try_second":180,"is_bloger":0,"is_vip":1,"comefrom_title":"恋脚癖"},{"id":396482,"title":"黑发性感演出脚网眼丝袜-恋足","status":1,"thumb":"https://imgmd.n123dx.xyz/doudou/doudou/lz_b3ndfhn7/lz_b3ndfhn7.jpg","preview":"https://imgmd.n123dx.xyz/doudou/doudou/lz_b3ndfhn7/lz_b3ndfhn7_sync.webp","panorama":"https://vvbacksixiuw.n123dx.xyz//doudou/doudou/lz_b3ndfhn7/lz_b3ndfhn7_longPreview.jpg","description":"","video_url":"https://m3md.n6uem8.xyz/doudou/doudou/lz_b3ndfhn7/hls/1/index.m3u8","comefrom":52,"tags":[{"id":43,"name":"巨乳"},{"id":46,"name":"裤袜"},{"id":47,"name":"美少女"},{"id":99,"name":"热门推荐"}],"test_video_url":null,"try_second":180,"is_bloger":0,"is_vip":1,"comefrom_title":"恋脚癖"},{"id":396480,"title":"黑发玩弄泡沫和巨大的山雀-恋足","status":1,"thumb":"https://imgmd.n123dx.xyz/doudou/doudou/lz_hwkyedny/lz_hwkyedny.jpg","preview":"https://imgmd.n123dx.xyz/doudou/doudou/lz_hwkyedny/lz_hwkyedny_sync.webp","panorama":"https://vvbacksixiuw.n123dx.xyz//doudou/doudou/lz_hwkyedny/lz_hwkyedny_longPreview.jpg","description":"","video_url":"https://m3md.n6uem8.xyz/doudou/doudou/lz_hwkyedny/hls/1/index.m3u8","comefrom":52,"tags":[{"id":43,"name":"巨乳"},{"id":47,"name":"美少女"},{"id":75,"name":"大"},{"id":99,"name":"热门推荐"}],"test_video_url":null,"try_second":180,"is_bloger":0,"is_vip":1,"comefrom_title":"恋脚癖"},{"id":396481,"title":"WhiteSocksOilFootjob","status":1,"thumb":"https://imgmd.n123dx.xyz/doudou/doudou/lz_gjcr7yqu/lz_gjcr7yqu.jpg","preview":"https://imgmd.n123dx.xyz/doudou/doudou/lz_gjcr7yqu/lz_gjcr7yqu_sync.webp","panorama":"https://vvbacksixiuw.n123dx.xyz//doudou/doudou/lz_gjcr7yqu/lz_gjcr7yqu_longPreview.jpg","description":"","video_url":"https://m3md.n6uem8.xyz/doudou/doudou/lz_gjcr7yqu/hls/1/index.m3u8","comefrom":52,"tags":[{"id":20,"name":"按摩"},{"id":46,"name":"裤袜"},{"id":47,"name":"美少女"},{"id":75,"name":"大"},{"id":99,"name":"热门推荐"}],"test_video_url":null,"try_second":180,"is_bloger":0,"is_vip":1,"comefrom_title":"恋脚癖"},{"id":396477,"title":"Bbw女孩在黑色的靴子跳舞，手淫猫-恋足","status":1,"thumb":"https://imgmd.n123dx.xyz/doudou/doudou/lz_gdpt45pr/lz_gdpt45pr.jpg","preview":"https://imgmd.n123dx.xyz/doudou/doudou/lz_gdpt45pr/lz_gdpt45pr_sync.webp","panorama":"https://vvbacksixiuw.n123dx.xyz//doudou/doudou/lz_gdpt45pr/lz_gdpt45pr_longPreview.jpg","description":"","video_url":"https://m3md.n6uem8.xyz/doudou/doudou/lz_gdpt45pr/hls/1/index.m3u8","comefrom":52,"tags":[{"id":46,"name":"裤袜"},{"id":53,"name":"自慰"},{"id":80,"name":"肉感"},{"id":97,"name":"自拍"},{"id":99,"name":"热门推荐"}],"test_video_url":null,"try_second":180,"is_bloger":0,"is_vip":1,"comefrom_title":"恋脚癖"},{"id":396490,"title":"学生磨油脚-恋足","status":1,"thumb":"https://imgmd.n123dx.xyz/doudou/doudou/lz_g4232v5k/lz_g4232v5k.jpg","preview":"https://imgmd.n123dx.xyz/doudou/doudou/lz_g4232v5k/lz_g4232v5k_sync.webp","panorama":"https://vvbacksixiuw.n123dx.xyz//doudou/doudou/lz_g4232v5k/lz_g4232v5k_longPreview.jpg","description":"","video_url":"https://m3md.n6uem8.xyz/doudou/doudou/lz_g4232v5k/hls/1/index.m3u8","comefrom":52,"tags":[{"id":20,"name":"按摩"},{"id":47,"name":"美少女"},{"id":99,"name":"热门推荐"}],"test_video_url":null,"try_second":180,"is_bloger":0,"is_vip":1,"comefrom_title":"恋脚癖"},{"id":396476,"title":"性感女孩充满激情的笨蛋离开家伙的脚在睡前-恋足","status":1,"thumb":"https://imgmd.n123dx.xyz/doudou/doudou/lz_pdurbr4n/lz_pdurbr4n.jpg","preview":"https://imgmd.n123dx.xyz/doudou/doudou/lz_pdurbr4n/lz_pdurbr4n_sync.webp","panorama":"https://vvbacksixiuw.n123dx.xyz//doudou/doudou/lz_pdurbr4n/lz_pdurbr4n_longPreview.jpg","description":"","video_url":"https://m3md.n6uem8.xyz/doudou/doudou/lz_pdurbr4n/hls/1/index.m3u8","comefrom":52,"tags":[{"id":10,"name":"酒店"},{"id":43,"name":"巨乳"},{"id":47,"name":"美少女"},{"id":75,"name":"大"},{"id":99,"name":"热门推荐"}],"test_video_url":null,"try_second":180,"is_bloger":0,"is_vip":1,"comefrom_title":"恋脚癖"},{"id":396485,"title":"性感的黑发深喉和指法-恋足","status":1,"thumb":"https://imgmd.n123dx.xyz/doudou/doudou/lz_3bhmam48/lz_3bhmam48.jpg","preview":"https://imgmd.n123dx.xyz/doudou/doudou/lz_3bhmam48/lz_3bhmam48_sync.webp","panorama":"https://vvbacksixiuw.n123dx.xyz//doudou/doudou/lz_3bhmam48/lz_3bhmam48_longPreview.jpg","description":"","video_url":"https://m3md.n6uem8.xyz/doudou/doudou/lz_3bhmam48/hls/1/index.m3u8","comefrom":52,"tags":[{"id":7,"name":"情趣内衣"},{"id":43,"name":"巨乳"},{"id":47,"name":"美少女"},{"id":57,"name":"口爆"},{"id":99,"name":"热门推荐"}],"test_video_url":null,"try_second":180,"is_bloger":0,"is_vip":1,"comefrom_title":"恋脚癖"},{"id":396471,"title":"热口交暨在舌头和脚上的恋物癖-MiaFire","status":1,"thumb":"https://imgmd.n123dx.xyz/doudou/doudou/lz_xsbqnvpc/lz_xsbqnvpc.jpg","preview":"https://imgmd.n123dx.xyz/doudou/doudou/lz_xsbqnvpc/lz_xsbqnvpc_sync.webp","panorama":"https://vvbacksixiuw.n123dx.xyz//doudou/doudou/lz_xsbqnvpc/lz_xsbqnvpc_longPreview.jpg","description":"","video_url":"https://m3md.n6uem8.xyz/doudou/doudou/lz_xsbqnvpc/hls/1/index.m3u8","comefrom":52,"tags":[{"id":28,"name":"修长"},{"id":47,"name":"美少女"},{"id":57,"name":"口爆"},{"id":99,"name":"热门推荐"}],"test_video_url":null,"try_second":180,"is_bloger":0,"is_vip":1,"comefrom_title":"恋脚癖"},{"id":396470,"title":"女孩性感的脚交特写镜头-恋足","status":1,"thumb":"https://imgmd.n123dx.xyz/doudou/doudou/lz_dwuakuks/lz_dwuakuks.jpg","preview":"https://imgmd.n123dx.xyz/doudou/doudou/lz_dwuakuks/lz_dwuakuks_sync.webp","panorama":"https://vvbacksixiuw.n123dx.xyz//doudou/doudou/lz_dwuakuks/lz_dwuakuks_longPreview.jpg","description":"","video_url":"https://m3md.n6uem8.xyz/doudou/doudou/lz_dwuakuks/hls/1/index.m3u8","comefrom":52,"tags":[{"id":28,"name":"修长"},{"id":47,"name":"美少女"},{"id":75,"name":"大"},{"id":99,"name":"热门推荐"}],"test_video_url":null,"try_second":180,"is_bloger":0,"is_vip":1,"comefrom_title":"恋脚癖"},{"id":396469,"title":"女孩滴落在她的脚和践踏香蕉蜡-恋足","status":1,"thumb":"https://imgmd.n123dx.xyz/doudou/doudou/lz_jyr6ynr7/lz_jyr6ynr7.jpg","preview":"https://imgmd.n123dx.xyz/doudou/doudou/lz_jyr6ynr7/lz_jyr6ynr7_sync.webp","panorama":"https://vvbacksixiuw.n123dx.xyz//doudou/doudou/lz_jyr6ynr7/lz_jyr6ynr7_longPreview.jpg","description":"","video_url":"https://m3md.n6uem8.xyz/doudou/doudou/lz_jyr6ynr7/hls/1/index.m3u8","comefrom":52,"tags":[{"id":43,"name":"巨乳"},{"id":47,"name":"美少女"},{"id":75,"name":"大"},{"id":99,"name":"热门推荐"}],"test_video_url":null,"try_second":180,"is_bloger":0,"is_vip":1,"comefrom_title":"恋脚癖"},{"id":396474,"title":"恋足。挺直的腿。视角","status":1,"thumb":"https://imgmd.n123dx.xyz/doudou/doudou/lz_ub8xv434/lz_ub8xv434.jpg","preview":"https://imgmd.n123dx.xyz/doudou/doudou/lz_ub8xv434/lz_ub8xv434_sync.webp","panorama":"https://vvbacksixiuw.n123dx.xyz//doudou/doudou/lz_ub8xv434/lz_ub8xv434_longPreview.jpg","description":"","video_url":"https://m3md.n6uem8.xyz/doudou/doudou/lz_ub8xv434/hls/1/index.m3u8","comefrom":52,"tags":[{"id":20,"name":"按摩"},{"id":43,"name":"巨乳"},{"id":47,"name":"美少女"},{"id":75,"name":"大"},{"id":99,"name":"热门推荐"}],"test_video_url":null,"try_second":180,"is_bloger":0,"is_vip":1,"comefrom_title":"恋脚癖"},{"id":396473,"title":"拉丁裔蕾安娜在吸烟时玩脚-完美的脚恋足袜子抽烟","status":1,"thumb":"https://imgmd.n123dx.xyz/doudou/doudou/lz_hd2h5yug/lz_hd2h5yug.jpg","preview":"https://imgmd.n123dx.xyz/doudou/doudou/lz_hd2h5yug/lz_hd2h5yug_sync.webp","panorama":"https://vvbacksixiuw.n123dx.xyz//doudou/doudou/lz_hd2h5yug/lz_hd2h5yug_longPreview.jpg","description":"","video_url":"https://m3md.n6uem8.xyz/doudou/doudou/lz_hd2h5yug/hls/1/index.m3u8","comefrom":52,"tags":[{"id":7,"name":"情趣内衣"},{"id":43,"name":"巨乳"},{"id":46,"name":"裤袜"},{"id":47,"name":"美少女"},{"id":99,"name":"热门推荐"}],"test_video_url":null,"try_second":180,"is_bloger":0,"is_vip":1,"comefrom_title":"恋脚癖"},{"id":396466,"title":"恋足，油性足部按摩","status":1,"thumb":"https://imgmd.n123dx.xyz/doudou/doudou/lz_u43ff85s/lz_u43ff85s.jpg","preview":"https://imgmd.n123dx.xyz/doudou/doudou/lz_u43ff85s/lz_u43ff85s_sync.webp","panorama":"https://vvbacksixiuw.n123dx.xyz//doudou/doudou/lz_u43ff85s/lz_u43ff85s_longPreview.jpg","description":"","video_url":"https://m3md.n6uem8.xyz/doudou/doudou/lz_u43ff85s/hls/1/index.m3u8","comefrom":52,"tags":[{"id":20,"name":"按摩"},{"id":28,"name":"修长"},{"id":75,"name":"大"},{"id":99,"name":"热门推荐"}],"test_video_url":null,"try_second":180,"is_bloger":0,"is_vip":1,"comefrom_title":"恋脚癖"},{"id":396467,"title":"可爱黑发妹izzyLush的恋足脚爱","status":1,"thumb":"https://imgmd.n123dx.xyz/doudou/doudou/lz_tbw5eccy/lz_tbw5eccy.jpg","preview":"https://imgmd.n123dx.xyz/doudou/doudou/lz_tbw5eccy/lz_tbw5eccy_sync.webp","panorama":"https://vvbacksixiuw.n123dx.xyz//doudou/doudou/lz_tbw5eccy/lz_tbw5eccy_longPreview.jpg","description":"","video_url":"https://m3md.n6uem8.xyz/doudou/doudou/lz_tbw5eccy/hls/1/index.m3u8","comefrom":52,"tags":[{"id":9,"name":"骑乘位"},{"id":47,"name":"美少女"},{"id":57,"name":"口爆"},{"id":75,"name":"大"},{"id":99,"name":"热门推荐"}],"test_video_url":null,"try_second":180,"is_bloger":0,"is_vip":1,"comefrom_title":"恋脚癖"},{"id":396468,"title":"脚工作和手工工作。＃恋足。","status":1,"thumb":"https://imgmd.n123dx.xyz/doudou/doudou/lz_thuvswbd/lz_thuvswbd.jpg","preview":"https://imgmd.n123dx.xyz/doudou/doudou/lz_thuvswbd/lz_thuvswbd_sync.webp","panorama":"https://vvbacksixiuw.n123dx.xyz//doudou/doudou/lz_thuvswbd/lz_thuvswbd_longPreview.jpg","description":"","video_url":"https://m3md.n6uem8.xyz/doudou/doudou/lz_thuvswbd/hls/1/index.m3u8","comefrom":52,"tags":[{"id":43,"name":"巨乳"},{"id":47,"name":"美少女"},{"id":75,"name":"大"},{"id":99,"name":"热门推荐"}],"test_video_url":null,"try_second":180,"is_bloger":0,"is_vip":1,"comefrom_title":"恋脚癖"},{"id":396459,"title":"对于爱美腿的人。我喜欢崇拜我的脚。恋足","status":1,"thumb":"https://imgmd.n123dx.xyz/doudou/doudou/lz_sanugqgc/lz_sanugqgc.jpg","preview":"https://imgmd.n123dx.xyz/doudou/doudou/lz_sanugqgc/lz_sanugqgc_sync.webp","panorama":"https://vvbacksixiuw.n123dx.xyz//doudou/doudou/lz_sanugqgc/lz_sanugqgc_longPreview.jpg","description":"","video_url":"https://m3md.n6uem8.xyz/doudou/doudou/lz_sanugqgc/hls/1/index.m3u8","comefrom":52,"tags":[{"id":28,"name":"修长"},{"id":47,"name":"美少女"},{"id":99,"name":"热门推荐"}],"test_video_url":null,"try_second":180,"is_bloger":0,"is_vip":1,"comefrom_title":"恋脚癖"},{"id":396463,"title":"当姐姐穿上丝袜时，他一直监视着她，无法抗拒并性交她，恋足","status":1,"thumb":"https://imgmd.n123dx.xyz/doudou/doudou/lz_njrwt66h/lz_njrwt66h.jpg","preview":"https://imgmd.n123dx.xyz/doudou/doudou/lz_njrwt66h/lz_njrwt66h_sync.webp","panorama":"https://vvbacksixiuw.n123dx.xyz//doudou/doudou/lz_njrwt66h/lz_njrwt66h_longPreview.jpg","description":"","video_url":"https://m3md.n6uem8.xyz/doudou/doudou/lz_njrwt66h/hls/1/index.m3u8","comefrom":52,"tags":[{"id":28,"name":"修长"},{"id":46,"name":"裤袜"},{"id":75,"name":"大"},{"id":99,"name":"热门推荐"}],"test_video_url":null,"try_second":180,"is_bloger":0,"is_vip":1,"comefrom_title":"恋脚癖"},{"id":396460,"title":"从修长美丽感性脚交-恋足","status":1,"thumb":"https://imgmd.n123dx.xyz/doudou/doudou/lz_n67bs78j/lz_n67bs78j.jpg","preview":"https://imgmd.n123dx.xyz/doudou/doudou/lz_n67bs78j/lz_n67bs78j_sync.webp","panorama":"https://vvbacksixiuw.n123dx.xyz//doudou/doudou/lz_n67bs78j/lz_n67bs78j_longPreview.jpg","description":"","video_url":"https://m3md.n6uem8.xyz/doudou/doudou/lz_n67bs78j/hls/1/index.m3u8","comefrom":52,"tags":[{"id":28,"name":"修长"},{"id":75,"name":"大"},{"id":99,"name":"热门推荐"}],"test_video_url":null,"try_second":180,"is_bloger":0,"is_vip":1,"comefrom_title":"恋脚癖"},{"id":396464,"title":"Tattoed女孩恋足和肛门手淫大假阳具","status":1,"thumb":"https://imgmd.n123dx.xyz/doudou/doudou/lz_fub4wg6t/lz_fub4wg6t.jpg","preview":"https://imgmd.n123dx.xyz/doudou/doudou/lz_fub4wg6t/lz_fub4wg6t_sync.webp","panorama":"https://vvbacksixiuw.n123dx.xyz//doudou/doudou/lz_fub4wg6t/lz_fub4wg6t_longPreview.jpg","description":"","video_url":"https://m3md.n6uem8.xyz/doudou/doudou/lz_fub4wg6t/hls/1/index.m3u8","comefrom":52,"tags":[{"id":9,"name":"骑乘位"},{"id":47,"name":"美少女"},{"id":57,"name":"口爆"},{"id":75,"name":"大"},{"id":99,"name":"热门推荐"}],"test_video_url":null,"try_second":180,"is_bloger":0,"is_vip":1,"comefrom_title":"恋脚癖"},{"id":396462,"title":"ENOLA-脸部漫游（恋足）","status":1,"thumb":"https://imgmd.n123dx.xyz/doudou/doudou/lz_eaduspc6/lz_eaduspc6.jpg","preview":"https://imgmd.n123dx.xyz/doudou/doudou/lz_eaduspc6/lz_eaduspc6_sync.webp","panorama":"https://vvbacksixiuw.n123dx.xyz//doudou/doudou/lz_eaduspc6/lz_eaduspc6_longPreview.jpg","description":"","video_url":"https://m3md.n6uem8.xyz/doudou/doudou/lz_eaduspc6/hls/1/index.m3u8","comefrom":52,"tags":[{"id":47,"name":"美少女"},{"id":75,"name":"大"},{"id":99,"name":"热门推荐"}],"test_video_url":null,"try_second":180,"is_bloger":0,"is_vip":1,"comefrom_title":"恋脚癖"},{"id":396457,"title":"最好的恋足癖！脚交脚上暨脚崇拜汇编","status":1,"thumb":"https://imgmd.n123dx.xyz/doudou/doudou/lz_5aen4m2q/lz_5aen4m2q.jpg","preview":"https://imgmd.n123dx.xyz/doudou/doudou/lz_5aen4m2q/lz_5aen4m2q_sync.webp","panorama":"https://vvbacksixiuw.n123dx.xyz//doudou/doudou/lz_5aen4m2q/lz_5aen4m2q_longPreview.jpg","description":"","video_url":"https://m3md.n6uem8.xyz/doudou/doudou/lz_5aen4m2q/hls/1/index.m3u8","comefrom":52,"tags":[{"id":28,"name":"修长"},{"id":46,"name":"裤袜"},{"id":75,"name":"大"},{"id":99,"name":"热门推荐"}],"test_video_url":null,"try_second":180,"is_bloger":0,"is_vip":1,"comefrom_title":"恋脚癖"},{"id":396458,"title":"足フェチのための踊　太い足？い足？","status":1,"thumb":"https://imgmd.n123dx.xyz/doudou/doudou/lz_ddeqvut4/lz_ddeqvut4.jpg","preview":"https://imgmd.n123dx.xyz/doudou/doudou/lz_ddeqvut4/lz_ddeqvut4_sync.webp","panorama":"https://vvbacksixiuw.n123dx.xyz//doudou/doudou/lz_ddeqvut4/lz_ddeqvut4_longPreview.jpg","description":"","video_url":"https://m3md.n6uem8.xyz/doudou/doudou/lz_ddeqvut4/hls/1/index.m3u8","comefrom":52,"tags":[{"id":28,"name":"修长"},{"id":47,"name":"美少女"},{"id":99,"name":"热门推荐"}],"test_video_url":null,"try_second":180,"is_bloger":0,"is_vip":1,"comefrom_title":"恋脚癖"},{"id":396454,"title":"我会为您做FOOTJOB，但会向我保证您会他妈的我更坚强！","status":1,"thumb":"https://imgmd.n123dx.xyz/doudou/doudou/lz_35djkugu/lz_35djkugu.jpg","preview":"https://imgmd.n123dx.xyz/doudou/doudou/lz_35djkugu/lz_35djkugu_sync.webp","panorama":"https://vvbacksixiuw.n123dx.xyz//doudou/doudou/lz_35djkugu/lz_35djkugu_longPreview.jpg","description":"","video_url":"https://m3md.n6uem8.xyz/doudou/doudou/lz_35djkugu/hls/1/index.m3u8","comefrom":52,"tags":[{"id":20,"name":"按摩"},{"id":75,"name":"大"},{"id":99,"name":"热门推荐"}],"test_video_url":null,"try_second":180,"is_bloger":0,"is_vip":1,"comefrom_title":"恋脚癖"},{"id":396456,"title":"恋足足交","status":1,"thumb":"https://imgmd.n123dx.xyz/doudou/doudou/lz_8kjs52g7/lz_8kjs52g7.jpg","preview":"https://imgmd.n123dx.xyz/doudou/doudou/lz_8kjs52g7/lz_8kjs52g7_sync.webp","panorama":"https://vvbacksixiuw.n123dx.xyz//doudou/doudou/lz_8kjs52g7/lz_8kjs52g7_longPreview.jpg","description":"","video_url":"https://m3md.n6uem8.xyz/doudou/doudou/lz_8kjs52g7/hls/1/index.m3u8","comefrom":52,"tags":[{"id":28,"name":"修长"},{"id":75,"name":"大"},{"id":76,"name":"玩具"},{"id":99,"name":"热门推荐"}],"test_video_url":null,"try_second":180,"is_bloger":0,"is_vip":1,"comefrom_title":"恋脚癖"},{"id":396455,"title":"恋足。看腿和抽搐","status":1,"thumb":"https://imgmd.n123dx.xyz/doudou/doudou/lz_ydewfaqy/lz_ydewfaqy.jpg","preview":"https://imgmd.n123dx.xyz/doudou/doudou/lz_ydewfaqy/lz_ydewfaqy_sync.webp","panorama":"https://vvbacksixiuw.n123dx.xyz//doudou/doudou/lz_ydewfaqy/lz_ydewfaqy_longPreview.jpg","description":"","video_url":"https://m3md.n6uem8.xyz/doudou/doudou/lz_ydewfaqy/hls/1/index.m3u8","comefrom":52,"tags":[{"id":28,"name":"修长"},{"id":46,"name":"裤袜"},{"id":47,"name":"美少女"},{"id":99,"name":"热门推荐"}],"test_video_url":null,"try_second":180,"is_bloger":0,"is_vip":1,"comefrom_title":"恋脚癖"},{"id":396453,"title":"口腔体内射精从美丽。恋足","status":1,"thumb":"https://imgmd.n123dx.xyz/doudou/doudou/lz_umbawfge/lz_umbawfge.jpg","preview":"https://imgmd.n123dx.xyz/doudou/doudou/lz_umbawfge/lz_umbawfge_sync.webp","panorama":"https://vvbacksixiuw.n123dx.xyz//doudou/doudou/lz_umbawfge/lz_umbawfge_longPreview.jpg","description":"","video_url":"https://m3md.n6uem8.xyz/doudou/doudou/lz_umbawfge/hls/1/index.m3u8","comefrom":52,"tags":[{"id":47,"name":"美少女"},{"id":57,"name":"口爆"},{"id":75,"name":"大"},{"id":99,"name":"热门推荐"}],"test_video_url":null,"try_second":180,"is_bloger":0,"is_vip":1,"comefrom_title":"恋脚癖"},{"id":396445,"title":"护士服调教男m舔脚丝袜足交射了很多在脚上","status":1,"thumb":"https://imgmd.n123dx.xyz/doudou/doudou/lz_rgyq8prj/lz_rgyq8prj.jpg","preview":"https://imgmd.n123dx.xyz/doudou/doudou/lz_rgyq8prj/lz_rgyq8prj_sync.webp","panorama":"https://vvbacksixiuw.n123dx.xyz//doudou/doudou/lz_rgyq8prj/lz_rgyq8prj_longPreview.jpg","description":"","video_url":"https://m3md.n6uem8.xyz/doudou/doudou/lz_rgyq8prj/hls/1/index.m3u8","comefrom":52,"tags":[{"id":46,"name":"裤袜"},{"id":47,"name":"美少女"},{"id":75,"name":"大"},{"id":99,"name":"热门推荐"}],"test_video_url":null,"try_second":180,"is_bloger":0,"is_vip":1,"comefrom_title":"恋脚癖"},{"id":396447,"title":"人撮影足フェチ彼氏が彼女","status":1,"thumb":"https://imgmd.n123dx.xyz/doudou/doudou/lz_3e4khwa4/lz_3e4khwa4.jpg","preview":"https://imgmd.n123dx.xyz/doudou/doudou/lz_3e4khwa4/lz_3e4khwa4_sync.webp","panorama":"https://vvbacksixiuw.n123dx.xyz//doudou/doudou/lz_3e4khwa4/lz_3e4khwa4_longPreview.jpg","description":"","video_url":"https://m3md.n6uem8.xyz/doudou/doudou/lz_3e4khwa4/hls/1/index.m3u8","comefrom":52,"tags":[{"id":28,"name":"修长"},{"id":75,"name":"大"},{"id":99,"name":"热门推荐"}],"test_video_url":null,"try_second":180,"is_bloger":0,"is_vip":1,"comefrom_title":"恋脚癖"},{"id":396444,"title":"人撮影正面POV日本人素人足Yに射精","status":1,"thumb":"https://imgmd.n123dx.xyz/doudou/doudou/lz_f3cmtud7/lz_f3cmtud7.jpg","preview":"https://imgmd.n123dx.xyz/doudou/doudou/lz_f3cmtud7/lz_f3cmtud7_sync.webp","panorama":"https://vvbacksixiuw.n123dx.xyz//doudou/doudou/lz_f3cmtud7/lz_f3cmtud7_longPreview.jpg","description":"","video_url":"https://m3md.n6uem8.xyz/doudou/doudou/lz_f3cmtud7/hls/1/index.m3u8","comefrom":52,"tags":[{"id":7,"name":"情趣内衣"},{"id":28,"name":"修长"},{"id":75,"name":"大"},{"id":99,"name":"热门推荐"}],"test_video_url":null,"try_second":180,"is_bloger":0,"is_vip":1,"comefrom_title":"恋脚癖"},{"id":396442,"title":"人撮影素人OLの足Y","status":1,"thumb":"https://imgmd.n123dx.xyz/doudou/doudou/lz_ndgnxbe6/lz_ndgnxbe6.jpg","preview":"https://imgmd.n123dx.xyz/doudou/doudou/lz_ndgnxbe6/lz_ndgnxbe6_sync.webp","panorama":"https://vvbacksixiuw.n123dx.xyz//doudou/doudou/lz_ndgnxbe6/lz_ndgnxbe6_longPreview.jpg","description":"","video_url":"https://m3md.n6uem8.xyz/doudou/doudou/lz_ndgnxbe6/hls/1/index.m3u8","comefrom":52,"tags":[{"id":47,"name":"美少女"},{"id":75,"name":"大"},{"id":97,"name":"自拍"},{"id":99,"name":"热门推荐"}],"test_video_url":null,"try_second":180,"is_bloger":0,"is_vip":1,"comefrom_title":"恋脚癖"},{"id":396450,"title":"人撮影日本人素人足Yに射精","status":1,"thumb":"https://imgmd.n123dx.xyz/doudou/doudou/lz_w7nwapwr/lz_w7nwapwr.jpg","preview":"https://imgmd.n123dx.xyz/doudou/doudou/lz_w7nwapwr/lz_w7nwapwr_sync.webp","panorama":"https://vvbacksixiuw.n123dx.xyz//doudou/doudou/lz_w7nwapwr/lz_w7nwapwr_longPreview.jpg","description":"","video_url":"https://m3md.n6uem8.xyz/doudou/doudou/lz_w7nwapwr/hls/1/index.m3u8","comefrom":52,"tags":[{"id":28,"name":"修长"},{"id":75,"name":"大"},{"id":99,"name":"热门推荐"}],"test_video_url":null,"try_second":180,"is_bloger":0,"is_vip":1,"comefrom_title":"恋脚癖"},{"id":396448,"title":"肛门高潮和恋足","status":1,"thumb":"https://imgmd.n123dx.xyz/doudou/doudou/lz_ybb7cxhb/lz_ybb7cxhb.jpg","preview":"https://imgmd.n123dx.xyz/doudou/doudou/lz_ybb7cxhb/lz_ybb7cxhb_sync.webp","panorama":"https://vvbacksixiuw.n123dx.xyz//doudou/doudou/lz_ybb7cxhb/lz_ybb7cxhb_longPreview.jpg","description":"","video_url":"https://m3md.n6uem8.xyz/doudou/doudou/lz_ybb7cxhb/hls/1/index.m3u8","comefrom":52,"tags":[{"id":47,"name":"美少女"},{"id":74,"name":"肛交"},{"id":75,"name":"大"},{"id":99,"name":"热门推荐"}],"test_video_url":null,"try_second":180,"is_bloger":0,"is_vip":1,"comefrom_title":"恋脚癖"},{"id":396443,"title":"感性的脚交特写镜头-恋足","status":1,"thumb":"https://imgmd.n123dx.xyz/doudou/doudou/lz_arggjy43/lz_arggjy43.jpg","preview":"https://imgmd.n123dx.xyz/doudou/doudou/lz_arggjy43/lz_arggjy43_sync.webp","panorama":"https://vvbacksixiuw.n123dx.xyz//doudou/doudou/lz_arggjy43/lz_arggjy43_longPreview.jpg","description":"","video_url":"https://m3md.n6uem8.xyz/doudou/doudou/lz_arggjy43/hls/1/index.m3u8","comefrom":52,"tags":[{"id":20,"name":"按摩"},{"id":75,"name":"大"},{"id":99,"name":"热门推荐"}],"test_video_url":null,"try_second":180,"is_bloger":0,"is_vip":1,"comefrom_title":"恋脚癖"}]}}