{"code":0,"msg":"操作成功","data":{"total":800,"per_page":100,"current_page":1,"last_page":8,"data":[{"id":302332,"title":"专业操萝莉『百人斩』忽悠双马尾纹身萝莉离家出走的高三妹子做爱","status":1,"thumb":"https://imgmd.n123dx.xyz/doudou/doudou/md_hp6kmpp7/md_hp6kmpp7.jpg","preview":"https://imgmd.n123dx.xyz/doudou/doudou/md_hp6kmpp7/md_hp6kmpp7_sync.webp","panorama":"https://vvbacksixiuw.n123dx.xyz/doudou/doudou/md_hp6kmpp7/md_hp6kmpp7_longPreview.jpg","description":"","video_url":"https://m3md.n6uem8.xyz/doudou/doudou/md_hp6kmpp7/hls/1/index.m3u8","comefrom":63,"tags":[{"id":9,"name":"骑乘位"},{"id":10,"name":"酒店"},{"id":18,"name":"调教"},{"id":46,"name":"裤袜"},{"id":47,"name":"美少女"},{"id":97,"name":"自拍"},{"id":99,"name":"热门推荐"}],"test_video_url":null,"try_second":180,"is_bloger":0,"is_vip":0,"comefrom_title":"萝莉美少女"},{"id":302328,"title":"纹身小哥操天然大奶妹子身材好高双马尾萝莉制服美眉","status":1,"thumb":"https://imgmd.n123dx.xyz/doudou/doudou/md_8c2mwpx4/md_8c2mwpx4.jpg","preview":"https://imgmd.n123dx.xyz/doudou/doudou/md_8c2mwpx4/md_8c2mwpx4_sync.webp","panorama":"https://vvbacksixiuw.n123dx.xyz/doudou/doudou/md_8c2mwpx4/md_8c2mwpx4_longPreview.jpg","description":"","video_url":"https://m3md.n6uem8.xyz/doudou/doudou/md_8c2mwpx4/hls/1/index.m3u8","comefrom":63,"tags":[{"id":5,"name":"第一视角"},{"id":21,"name":"COSPALY"},{"id":47,"name":"美少女"},{"id":97,"name":"自拍"},{"id":99,"name":"热门推荐"}],"test_video_url":null,"try_second":180,"is_bloger":0,"is_vip":0,"comefrom_title":"萝莉美少女"},{"id":329012,"title":"纹身小哥操天然大奶妹子身材好高双马尾萝莉制服美眉","status":1,"thumb":"https://imgmd.n123dx.xyz/doudou/doudou/md_8c2mwpx4/md_8c2mwpx4.jpg","preview":"https://imgmd.n123dx.xyz/doudou/doudou/md_8c2mwpx4/md_8c2mwpx4_sync.webp","panorama":"https://vvbacksixiuw.n123dx.xyz//doudou/doudou/md_8c2mwpx4/md_8c2mwpx4_longPreview.jpg","description":"","video_url":"https://m3md.n6uem8.xyz/doudou/doudou/md_8c2mwpx4/hls/1/index.m3u8","comefrom":63,"tags":[{"id":5,"name":"第一视角"},{"id":21,"name":"COSPALY"},{"id":47,"name":"美少女"},{"id":97,"name":"自拍"},{"id":99,"name":"热门推荐"}],"test_video_url":null,"try_second":180,"is_bloger":0,"is_vip":0,"comefrom_title":"萝莉美少女"},{"id":301794,"title":"网红白虎萝莉【白桃少女】水晶冰潘俨寮品粉嫩白虎浪穴","status":1,"thumb":"https://imgmd.n123dx.xyz/doudou/doudou/md_5vgxtqku/md_5vgxtqku.jpg","preview":"https://imgmd.n123dx.xyz/doudou/doudou/md_5vgxtqku/md_5vgxtqku_sync.webp","panorama":"https://vvbacksixiuw.n123dx.xyz/doudou/doudou/md_5vgxtqku/md_5vgxtqku_longPreview.jpg","description":"","video_url":"https://m3md.n6uem8.xyz/doudou/doudou/md_5vgxtqku/hls/1/index.m3u8","comefrom":63,"tags":[{"id":46,"name":"裤袜"},{"id":47,"name":"美少女"},{"id":53,"name":"自慰"},{"id":97,"name":"自拍"},{"id":99,"name":"热门推荐"}],"test_video_url":null,"try_second":180,"is_bloger":0,"is_vip":0,"comefrom_title":"萝莉美少女"},{"id":329007,"title":"网红白虎萝莉【白桃少女】水晶冰潘俨寮品粉嫩白虎浪穴","status":1,"thumb":"https://imgmd.n123dx.xyz/doudou/doudou/md_5vgxtqku/md_5vgxtqku.jpg","preview":"https://imgmd.n123dx.xyz/doudou/doudou/md_5vgxtqku/md_5vgxtqku_sync.webp","panorama":"https://vvbacksixiuw.n123dx.xyz//doudou/doudou/md_5vgxtqku/md_5vgxtqku_longPreview.jpg","description":"","video_url":"https://m3md.n6uem8.xyz/doudou/doudou/md_5vgxtqku/hls/1/index.m3u8","comefrom":63,"tags":[{"id":46,"name":"裤袜"},{"id":47,"name":"美少女"},{"id":53,"name":"自慰"},{"id":97,"name":"自拍"},{"id":99,"name":"热门推荐"}],"test_video_url":null,"try_second":180,"is_bloger":0,"is_vip":0,"comefrom_title":"萝莉美少女"},{"id":301792,"title":"天花板级萝莉女友粉色情人狗链调教情趣兔女郎爆插嫩逼内射","status":1,"thumb":"https://imgmd.n123dx.xyz/doudou/doudou/md_48ew6gna/md_48ew6gna.jpg","preview":"https://imgmd.n123dx.xyz/doudou/doudou/md_48ew6gna/md_48ew6gna_sync.webp","panorama":"https://vvbacksixiuw.n123dx.xyz/doudou/doudou/md_48ew6gna/md_48ew6gna_longPreview.jpg","description":"","video_url":"https://m3md.n6uem8.xyz/doudou/doudou/md_48ew6gna/hls/1/index.m3u8","comefrom":63,"tags":[{"id":5,"name":"第一视角"},{"id":7,"name":"情趣内衣"},{"id":18,"name":"调教"},{"id":44,"name":"中出"},{"id":46,"name":"裤袜"},{"id":47,"name":"美少女"},{"id":53,"name":"自慰"},{"id":97,"name":"自拍"},{"id":99,"name":"热门推荐"}],"test_video_url":null,"try_second":180,"is_bloger":0,"is_vip":0,"comefrom_title":"萝莉美少女"},{"id":329005,"title":"天花板级萝莉女友粉色情人狗链调教情趣兔女郎爆插嫩逼内射","status":1,"thumb":"https://imgmd.n123dx.xyz/doudou/doudou/md_48ew6gna/md_48ew6gna.jpg","preview":"https://imgmd.n123dx.xyz/doudou/doudou/md_48ew6gna/md_48ew6gna_sync.webp","panorama":"https://vvbacksixiuw.n123dx.xyz//doudou/doudou/md_48ew6gna/md_48ew6gna_longPreview.jpg","description":"","video_url":"https://m3md.n6uem8.xyz/doudou/doudou/md_48ew6gna/hls/1/index.m3u8","comefrom":63,"tags":[{"id":5,"name":"第一视角"},{"id":7,"name":"情趣内衣"},{"id":18,"name":"调教"},{"id":44,"name":"中出"},{"id":46,"name":"裤袜"},{"id":47,"name":"美少女"},{"id":53,"name":"自慰"},{"id":97,"name":"自拍"},{"id":99,"name":"热门推荐"}],"test_video_url":null,"try_second":180,"is_bloger":0,"is_vip":0,"comefrom_title":"萝莉美少女"},{"id":301817,"title":"双马尾极品JK制服萝莉【专属小女友】大胖苯硬倌郾泼姥(2)","status":1,"thumb":"https://imgmd.n123dx.xyz/doudou/doudou/md_6vxffxca/md_6vxffxca.jpg","preview":"https://imgmd.n123dx.xyz/doudou/doudou/md_6vxffxca/md_6vxffxca_sync.webp","panorama":"https://vvbacksixiuw.n123dx.xyz/doudou/doudou/md_6vxffxca/md_6vxffxca_longPreview.jpg","description":"","video_url":"https://m3md.n6uem8.xyz/doudou/doudou/md_6vxffxca/hls/1/index.m3u8","comefrom":63,"tags":[{"id":21,"name":"COSPALY"},{"id":46,"name":"裤袜"},{"id":47,"name":"美少女"},{"id":97,"name":"自拍"},{"id":99,"name":"热门推荐"}],"test_video_url":null,"try_second":180,"is_bloger":0,"is_vip":0,"comefrom_title":"萝莉美少女"},{"id":301807,"title":"双马尾极品JK制服萝莉【专属小女友】大胖苯硬倌郾泼姥(1)","status":1,"thumb":"https://imgmd.n123dx.xyz/doudou/doudou/md_yg8cja3j/md_yg8cja3j.jpg","preview":"https://imgmd.n123dx.xyz/doudou/doudou/md_yg8cja3j/md_yg8cja3j_sync.webp","panorama":"https://vvbacksixiuw.n123dx.xyz/doudou/doudou/md_yg8cja3j/md_yg8cja3j_longPreview.jpg","description":"","video_url":"https://m3md.n6uem8.xyz/doudou/doudou/md_yg8cja3j/hls/1/index.m3u8","comefrom":63,"tags":[{"id":21,"name":"COSPALY"},{"id":46,"name":"裤袜"},{"id":47,"name":"美少女"},{"id":97,"name":"自拍"},{"id":99,"name":"热门推荐"}],"test_video_url":null,"try_second":180,"is_bloger":0,"is_vip":0,"comefrom_title":"萝莉美少女"},{"id":329009,"title":"双马尾极品JK制服萝莉【专属小女友】大胖苯硬倌郾泼姥(1)","status":1,"thumb":"https://imgmd.n123dx.xyz/doudou/doudou/md_yg8cja3j/md_yg8cja3j.jpg","preview":"https://imgmd.n123dx.xyz/doudou/doudou/md_yg8cja3j/md_yg8cja3j_sync.webp","panorama":"https://vvbacksixiuw.n123dx.xyz//doudou/doudou/md_yg8cja3j/md_yg8cja3j_longPreview.jpg","description":"","video_url":"https://m3md.n6uem8.xyz/doudou/doudou/md_yg8cja3j/hls/1/index.m3u8","comefrom":63,"tags":[{"id":21,"name":"COSPALY"},{"id":46,"name":"裤袜"},{"id":47,"name":"美少女"},{"id":97,"name":"自拍"},{"id":99,"name":"热门推荐"}],"test_video_url":null,"try_second":180,"is_bloger":0,"is_vip":0,"comefrom_title":"萝莉美少女"},{"id":299508,"title":"双马尾辫清纯萝莉半脱下内裤被炮友随意操，无毛粉穴第一视角操","status":1,"thumb":"https://imgmd.n123dx.xyz/doudou/doudou/md_t5kfd4c3/md_t5kfd4c3.jpg","preview":"https://imgmd.n123dx.xyz/doudou/doudou/md_t5kfd4c3/md_t5kfd4c3_sync.webp","panorama":"https://vvbacksixiuw.n123dx.xyz/doudou/doudou/md_t5kfd4c3/md_t5kfd4c3_longPreview.jpg","description":"","video_url":"https://m3md.n6uem8.xyz/doudou/doudou/md_t5kfd4c3/hls/1/index.m3u8","comefrom":63,"tags":[{"id":5,"name":"第一视角"},{"id":47,"name":"美少女"},{"id":97,"name":"自拍"},{"id":99,"name":"热门推荐"}],"test_video_url":null,"try_second":180,"is_bloger":0,"is_vip":0,"comefrom_title":"萝莉美少女"},{"id":299510,"title":"双马尾00后嫩妹和闺蜜双人秀，玻璃棒菊花小逼双洞其插","status":1,"thumb":"https://imgmd.n123dx.xyz/doudou/doudou/md_622jgpp8/md_622jgpp8.jpg","preview":"https://imgmd.n123dx.xyz/doudou/doudou/md_622jgpp8/md_622jgpp8_sync.webp","panorama":"https://vvbacksixiuw.n123dx.xyz//doudou/doudou/md_622jgpp8/md_622jgpp8_longPreview.jpg","description":"","video_url":"https://m3md.n6uem8.xyz/doudou/doudou/md_622jgpp8/hls/1/index.m3u8","comefrom":63,"tags":[{"id":29,"name":"女女"},{"id":47,"name":"美少女"},{"id":53,"name":"自慰"},{"id":76,"name":"玩具"},{"id":81,"name":"舔鲍"},{"id":97,"name":"自拍"},{"id":99,"name":"热门推荐"}],"test_video_url":null,"try_second":180,"is_bloger":0,"is_vip":0,"comefrom_title":"萝莉美少女"},{"id":299511,"title":"十八岁萝莉全程露脸跟小哥激情啪啪，口交大鸡巴让小哥无套爆草","status":1,"thumb":"https://imgmd.n123dx.xyz/doudou/doudou/md_bkmnnajf/md_bkmnnajf.jpg","preview":"https://imgmd.n123dx.xyz/doudou/doudou/md_bkmnnajf/md_bkmnnajf_sync.webp","panorama":"https://vvbacksixiuw.n123dx.xyz/doudou/doudou/md_bkmnnajf/md_bkmnnajf_longPreview.jpg","description":"","video_url":"https://m3md.n6uem8.xyz/doudou/doudou/md_bkmnnajf/hls/1/index.m3u8","comefrom":63,"tags":[{"id":44,"name":"中出"},{"id":47,"name":"美少女"},{"id":53,"name":"自慰"},{"id":97,"name":"自拍"},{"id":99,"name":"热门推荐"}],"test_video_url":null,"try_second":180,"is_bloger":0,"is_vip":0,"comefrom_title":"萝莉美少女"},{"id":329004,"title":"极品萝莉91大神三穴全开调教玩操双马尾萝莉后入粉嫩菊花","status":1,"thumb":"https://imgmd.n123dx.xyz/doudou/doudou/md_ne8t32su/md_ne8t32su.jpg","preview":"https://imgmd.n123dx.xyz/doudou/doudou/md_ne8t32su/md_ne8t32su_sync.webp","panorama":"https://vvbacksixiuw.n123dx.xyz//doudou/doudou/md_ne8t32su/md_ne8t32su_longPreview.jpg","description":"","video_url":"https://m3md.n6uem8.xyz/doudou/doudou/md_ne8t32su/hls/1/index.m3u8","comefrom":63,"tags":[{"id":47,"name":"美少女"},{"id":53,"name":"自慰"},{"id":97,"name":"自拍"},{"id":99,"name":"热门推荐"}],"test_video_url":null,"try_second":180,"is_bloger":0,"is_vip":0,"comefrom_title":"萝莉美少女"},{"id":299504,"title":"极品萝莉91大神三穴全开调教玩操双马尾萝莉后入粉嫩菊花","status":1,"thumb":"https://imgmd.n123dx.xyz/doudou/doudou/md_ne8t32su/md_ne8t32su.jpg","preview":"https://imgmd.n123dx.xyz/doudou/doudou/md_ne8t32su/md_ne8t32su_sync.webp","panorama":"https://vvbacksixiuw.n123dx.xyz/doudou/doudou/md_ne8t32su/md_ne8t32su_longPreview.jpg","description":"","video_url":"https://m3md.n6uem8.xyz/doudou/doudou/md_ne8t32su/hls/1/index.m3u8","comefrom":63,"tags":[{"id":5,"name":"第一视角"},{"id":18,"name":"调教"},{"id":47,"name":"美少女"},{"id":53,"name":"自慰"},{"id":74,"name":"肛交"},{"id":76,"name":"玩具"},{"id":97,"name":"自拍"},{"id":99,"name":"热门推荐"}],"test_video_url":null,"try_second":180,"is_bloger":0,"is_vip":0,"comefrom_title":"萝莉美少女"},{"id":299505,"title":"极品爆乳网红美女【狗头萝莉】细腰美臀全裸后入无套猛操","status":1,"thumb":"https://imgmd.n123dx.xyz/doudou/doudou/md_qevy43fj/md_qevy43fj.jpg","preview":"https://imgmd.n123dx.xyz/doudou/doudou/md_qevy43fj/md_qevy43fj_sync.webp","panorama":"https://vvbacksixiuw.n123dx.xyz/doudou/doudou/md_qevy43fj/md_qevy43fj_longPreview.jpg","description":"","video_url":"https://m3md.n6uem8.xyz/doudou/doudou/md_qevy43fj/hls/1/index.m3u8","comefrom":63,"tags":[{"id":5,"name":"第一视角"},{"id":43,"name":"巨乳"},{"id":47,"name":"美少女"},{"id":97,"name":"自拍"},{"id":99,"name":"热门推荐"}],"test_video_url":null,"try_second":180,"is_bloger":0,"is_vip":0,"comefrom_title":"萝莉美少女"},{"id":329013,"title":"极品爆乳网红美女『狗头萝莉』前男友流出的私拍喜欢无套内射","status":1,"thumb":"https://imgmd.n123dx.xyz/doudou/doudou/md_v75uv8ha/md_v75uv8ha.jpg","preview":"https://imgmd.n123dx.xyz/doudou/doudou/md_v75uv8ha/md_v75uv8ha_sync.webp","panorama":"https://vvbacksixiuw.n123dx.xyz//doudou/doudou/md_v75uv8ha/md_v75uv8ha_longPreview.jpg","description":"","video_url":"https://m3md.n6uem8.xyz/doudou/doudou/md_v75uv8ha/hls/1/index.m3u8","comefrom":63,"tags":[{"id":7,"name":"情趣内衣"},{"id":21,"name":"COSPALY"},{"id":43,"name":"巨乳"},{"id":44,"name":"中出"},{"id":47,"name":"美少女"},{"id":97,"name":"自拍"},{"id":99,"name":"热门推荐"}],"test_video_url":null,"try_second":180,"is_bloger":0,"is_vip":0,"comefrom_title":"萝莉美少女"},{"id":299507,"title":"极品爆乳网红美女『狗头萝莉』前男友流出的私拍喜欢无套内射","status":1,"thumb":"https://imgmd.n123dx.xyz/doudou/doudou/md_v75uv8ha/md_v75uv8ha.jpg","preview":"https://imgmd.n123dx.xyz/doudou/doudou/md_v75uv8ha/md_v75uv8ha_sync.webp","panorama":"https://vvbacksixiuw.n123dx.xyz/doudou/doudou/md_v75uv8ha/md_v75uv8ha_longPreview.jpg","description":"","video_url":"https://m3md.n6uem8.xyz/doudou/doudou/md_v75uv8ha/hls/1/index.m3u8","comefrom":63,"tags":[{"id":7,"name":"情趣内衣"},{"id":21,"name":"COSPALY"},{"id":43,"name":"巨乳"},{"id":44,"name":"中出"},{"id":47,"name":"美少女"},{"id":97,"name":"自拍"},{"id":99,"name":"热门推荐"}],"test_video_url":null,"try_second":180,"is_bloger":0,"is_vip":0,"comefrom_title":"萝莉美少女"},{"id":299513,"title":"激情的美少女，03年小萝莉够淫荡","status":1,"thumb":"https://imgmd.n123dx.xyz/doudou/doudou/md_emqcj822/md_emqcj822.jpg","preview":"https://imgmd.n123dx.xyz/doudou/doudou/md_emqcj822/md_emqcj822_sync.webp","panorama":"https://vvbacksixiuw.n123dx.xyz/doudou/doudou/md_emqcj822/md_emqcj822_longPreview.jpg","description":"","video_url":"https://m3md.n6uem8.xyz/doudou/doudou/md_emqcj822/hls/1/index.m3u8","comefrom":63,"tags":[{"id":9,"name":"骑乘位"},{"id":21,"name":"COSPALY"},{"id":46,"name":"裤袜"},{"id":47,"name":"美少女"},{"id":53,"name":"自慰"},{"id":97,"name":"自拍"},{"id":99,"name":"热门推荐"}],"test_video_url":null,"try_second":180,"is_bloger":0,"is_vip":0,"comefrom_title":"萝莉美少女"},{"id":329008,"title":"激情的美少女，03年小萝莉够淫荡","status":1,"thumb":"https://imgmd.n123dx.xyz/doudou/doudou/md_emqcj822/md_emqcj822.jpg","preview":"https://imgmd.n123dx.xyz/doudou/doudou/md_emqcj822/md_emqcj822_sync.webp","panorama":"https://vvbacksixiuw.n123dx.xyz//doudou/doudou/md_emqcj822/md_emqcj822_longPreview.jpg","description":"","video_url":"https://m3md.n6uem8.xyz/doudou/doudou/md_emqcj822/hls/1/index.m3u8","comefrom":63,"tags":[{"id":9,"name":"骑乘位"},{"id":21,"name":"COSPALY"},{"id":46,"name":"裤袜"},{"id":47,"name":"美少女"},{"id":53,"name":"自慰"},{"id":97,"name":"自拍"},{"id":99,"name":"热门推荐"}],"test_video_url":null,"try_second":180,"is_bloger":0,"is_vip":0,"comefrom_title":"萝莉美少女"},{"id":329017,"title":"豹纹黑丝小萝莉全程露脸伺候两个小哥哥这怎么受得了","status":1,"thumb":"https://imgmd.n123dx.xyz/doudou/doudou/md_apphxvj5/md_apphxvj5.jpg","preview":"https://imgmd.n123dx.xyz/doudou/doudou/md_apphxvj5/md_apphxvj5_sync.webp","panorama":"https://vvbacksixiuw.n123dx.xyz//doudou/doudou/md_apphxvj5/md_apphxvj5_longPreview.jpg","description":"","video_url":"https://m3md.n6uem8.xyz/doudou/doudou/md_apphxvj5/hls/1/index.m3u8","comefrom":63,"tags":[{"id":5,"name":"第一视角"},{"id":7,"name":"情趣内衣"},{"id":46,"name":"裤袜"},{"id":47,"name":"美少女"},{"id":97,"name":"自拍"},{"id":99,"name":"热门推荐"},{"id":101,"name":"口罩"}],"test_video_url":null,"try_second":180,"is_bloger":0,"is_vip":0,"comefrom_title":"萝莉美少女"},{"id":299512,"title":"豹纹黑丝小萝莉全程露脸伺候两个小哥哥这怎么受得了","status":1,"thumb":"https://imgmd.n123dx.xyz/doudou/doudou/md_apphxvj5/md_apphxvj5.jpg","preview":"https://imgmd.n123dx.xyz/doudou/doudou/md_apphxvj5/md_apphxvj5_sync.webp","panorama":"https://vvbacksixiuw.n123dx.xyz/doudou/doudou/md_apphxvj5/md_apphxvj5_longPreview.jpg","description":"","video_url":"https://m3md.n6uem8.xyz/doudou/doudou/md_apphxvj5/hls/1/index.m3u8","comefrom":63,"tags":[{"id":5,"name":"第一视角"},{"id":7,"name":"情趣内衣"},{"id":46,"name":"裤袜"},{"id":47,"name":"美少女"},{"id":97,"name":"自拍"},{"id":99,"name":"热门推荐"},{"id":101,"name":"口罩"}],"test_video_url":null,"try_second":180,"is_bloger":0,"is_vip":0,"comefrom_title":"萝莉美少女"},{"id":299515,"title":"18岁新人萝莉嫩妹和炮友激情大秀，骑乘大屁股快速套弄","status":1,"thumb":"https://imgmd.n123dx.xyz/doudou/doudou/md_jfdq2w7m/md_jfdq2w7m.jpg","preview":"https://imgmd.n123dx.xyz/doudou/doudou/md_jfdq2w7m/md_jfdq2w7m_sync.webp","panorama":"https://vvbacksixiuw.n123dx.xyz/doudou/doudou/md_jfdq2w7m/md_jfdq2w7m_longPreview.jpg","description":"","video_url":"https://m3md.n6uem8.xyz/doudou/doudou/md_jfdq2w7m/hls/1/index.m3u8","comefrom":63,"tags":[{"id":5,"name":"第一视角"},{"id":9,"name":"骑乘位"},{"id":47,"name":"美少女"},{"id":53,"name":"自慰"},{"id":76,"name":"玩具"},{"id":81,"name":"舔鲍"},{"id":97,"name":"自拍"},{"id":99,"name":"热门推荐"}],"test_video_url":null,"try_second":180,"is_bloger":0,"is_vip":0,"comefrom_title":"萝莉美少女"},{"id":299514,"title":"【萝莉学妹兔兔】约嫩逼小骚妹妹大白圆床乱伦禁忌无套怒操白袜妞","status":1,"thumb":"https://imgmd.n123dx.xyz/doudou/doudou/md_6ymfr62m/md_6ymfr62m.jpg","preview":"https://imgmd.n123dx.xyz/doudou/doudou/md_6ymfr62m/md_6ymfr62m_sync.webp","panorama":"https://vvbacksixiuw.n123dx.xyz//doudou/doudou/md_6ymfr62m/md_6ymfr62m_longPreview.jpg","description":"","video_url":"https://m3md.n6uem8.xyz/doudou/doudou/md_6ymfr62m/hls/1/index.m3u8","comefrom":63,"tags":[{"id":5,"name":"第一视角"},{"id":9,"name":"骑乘位"},{"id":15,"name":"恋脚癖"},{"id":46,"name":"裤袜"},{"id":47,"name":"美少女"},{"id":53,"name":"自慰"},{"id":97,"name":"自拍"},{"id":99,"name":"热门推荐"}],"test_video_url":null,"try_second":180,"is_bloger":0,"is_vip":0,"comefrom_title":"萝莉美少女"},{"id":299509,"title":"【萝莉学妹兔兔】小妹穿的好撩人忍不住抽旁诩宜烈獗操她","status":1,"thumb":"https://imgmd.n123dx.xyz/doudou/doudou/md_f4stenq3/md_f4stenq3.jpg","preview":"https://imgmd.n123dx.xyz/doudou/doudou/md_f4stenq3/md_f4stenq3_sync.webp","panorama":"https://vvbacksixiuw.n123dx.xyz/doudou/doudou/md_f4stenq3/md_f4stenq3_longPreview.jpg","description":"","video_url":"https://m3md.n6uem8.xyz/doudou/doudou/md_f4stenq3/hls/1/index.m3u8","comefrom":63,"tags":[{"id":7,"name":"情趣内衣"},{"id":15,"name":"恋脚癖"},{"id":46,"name":"裤袜"},{"id":47,"name":"美少女"},{"id":53,"name":"自慰"},{"id":97,"name":"自拍"},{"id":99,"name":"热门推荐"}],"test_video_url":null,"try_second":180,"is_bloger":0,"is_vip":0,"comefrom_title":"萝莉美少女"},{"id":298877,"title":"推特极品高端「萝莉女神」小舞酱COS芭芭拉挑战肥宅3P激战","status":1,"thumb":"https://imgmd.n123dx.xyz/doudou/doudou/md_xf785ycg/md_xf785ycg.jpg","preview":"https://imgmd.n123dx.xyz/doudou/doudou/md_xf785ycg/md_xf785ycg_sync.webp","panorama":"https://vvbacksixiuw.n123dx.xyz/doudou/doudou/md_xf785ycg/md_xf785ycg_longPreview.jpg","description":"","video_url":"https://m3md.n6uem8.xyz/doudou/doudou/md_xf785ycg/hls/1/index.m3u8","comefrom":63,"tags":[{"id":5,"name":"第一视角"},{"id":6,"name":"多P"},{"id":21,"name":"COSPALY"},{"id":46,"name":"裤袜"},{"id":47,"name":"美少女"},{"id":80,"name":"肉感"},{"id":97,"name":"自拍"},{"id":99,"name":"热门推荐"}],"test_video_url":null,"try_second":180,"is_bloger":0,"is_vip":0,"comefrom_title":"萝莉美少女"},{"id":298878,"title":"【萝莉学妹兔兔】小妹突破禁忌之恋爆裂黑丝家中四处啪啪","status":1,"thumb":"https://imgmd.n123dx.xyz/doudou/doudou/md_j26cy7gy/md_j26cy7gy.jpg","preview":"https://imgmd.n123dx.xyz/doudou/doudou/md_j26cy7gy/md_j26cy7gy_sync.webp","panorama":"https://vvbacksixiuw.n123dx.xyz/doudou/doudou/md_j26cy7gy/md_j26cy7gy_longPreview.jpg","description":"","video_url":"https://m3md.n6uem8.xyz/doudou/doudou/md_j26cy7gy/hls/1/index.m3u8","comefrom":63,"tags":[{"id":5,"name":"第一视角"},{"id":9,"name":"骑乘位"},{"id":46,"name":"裤袜"},{"id":47,"name":"美少女"},{"id":53,"name":"自慰"},{"id":97,"name":"自拍"},{"id":99,"name":"热门推荐"}],"test_video_url":null,"try_second":180,"is_bloger":0,"is_vip":0,"comefrom_title":"萝莉美少女"},{"id":298885,"title":"【萝莉学妹兔兔】沙发震各种玩操高跟白袜美少女站炮后入猛烈撞击","status":1,"thumb":"https://imgmd.n123dx.xyz/doudou/doudou/md_xu6nrnbp/md_xu6nrnbp.jpg","preview":"https://imgmd.n123dx.xyz/doudou/doudou/md_xu6nrnbp/md_xu6nrnbp_sync.webp","panorama":"https://vvbacksixiuw.n123dx.xyz//doudou/doudou/md_xu6nrnbp/md_xu6nrnbp_longPreview.jpg","description":"","video_url":"https://m3md.n6uem8.xyz/doudou/doudou/md_xu6nrnbp/hls/1/index.m3u8","comefrom":63,"tags":[{"id":5,"name":"第一视角"},{"id":21,"name":"COSPALY"},{"id":46,"name":"裤袜"},{"id":47,"name":"美少女"},{"id":97,"name":"自拍"},{"id":99,"name":"热门推荐"}],"test_video_url":null,"try_second":180,"is_bloger":0,"is_vip":0,"comefrom_title":"萝莉美少女"},{"id":298882,"title":"【萝莉学妹兔兔】发现体操服妹妹自慰の秘密","status":1,"thumb":"https://imgmd.n123dx.xyz/doudou/doudou/md_k63p7d7j/md_k63p7d7j.jpg","preview":"https://imgmd.n123dx.xyz/doudou/doudou/md_k63p7d7j/md_k63p7d7j_sync.webp","panorama":"https://vvbacksixiuw.n123dx.xyz/doudou/doudou/md_k63p7d7j/md_k63p7d7j_longPreview.jpg","description":"","video_url":"https://m3md.n6uem8.xyz/doudou/doudou/md_k63p7d7j/hls/1/index.m3u8","comefrom":63,"tags":[{"id":12,"name":"女子校生"},{"id":15,"name":"恋脚癖"},{"id":46,"name":"裤袜"},{"id":47,"name":"美少女"},{"id":53,"name":"自慰"},{"id":76,"name":"玩具"},{"id":97,"name":"自拍"},{"id":99,"name":"热门推荐"}],"test_video_url":null,"try_second":180,"is_bloger":0,"is_vip":0,"comefrom_title":"萝莉美少女"},{"id":298883,"title":"【跨年甄选极品萝莉】漂亮女友喵喵COS卡姆依龙女仆多姿势爆操","status":1,"thumb":"https://imgmd.n123dx.xyz/doudou/doudou/md_avmh4hrc/md_avmh4hrc.jpg","preview":"https://imgmd.n123dx.xyz/doudou/doudou/md_avmh4hrc/md_avmh4hrc_sync.webp","panorama":"https://vvbacksixiuw.n123dx.xyz/doudou/doudou/md_avmh4hrc/md_avmh4hrc_longPreview.jpg","description":"","video_url":"https://m3md.n6uem8.xyz/doudou/doudou/md_avmh4hrc/hls/1/index.m3u8","comefrom":63,"tags":[{"id":5,"name":"第一视角"},{"id":9,"name":"骑乘位"},{"id":21,"name":"COSPALY"},{"id":46,"name":"裤袜"},{"id":47,"name":"美少女"},{"id":53,"name":"自慰"},{"id":97,"name":"自拍"},{"id":99,"name":"热门推荐"}],"test_video_url":null,"try_second":180,"is_bloger":0,"is_vip":0,"comefrom_title":"萝莉美少女"},{"id":298884,"title":"【跨年甄选极品萝莉】落地窗翘爆操双马尾洛丽塔女友喵喵无套内射","status":1,"thumb":"https://imgmd.n123dx.xyz/doudou/doudou/md_fta2kftt/md_fta2kftt.jpg","preview":"https://imgmd.n123dx.xyz/doudou/doudou/md_fta2kftt/md_fta2kftt_sync.webp","panorama":"https://vvbacksixiuw.n123dx.xyz/doudou/doudou/md_fta2kftt/md_fta2kftt_longPreview.jpg","description":"","video_url":"https://m3md.n6uem8.xyz/doudou/doudou/md_fta2kftt/hls/1/index.m3u8","comefrom":63,"tags":[{"id":5,"name":"第一视角"},{"id":21,"name":"COSPALY"},{"id":46,"name":"裤袜"},{"id":47,"name":"美少女"},{"id":97,"name":"自拍"},{"id":99,"name":"热门推荐"}],"test_video_url":null,"try_second":180,"is_bloger":0,"is_vip":0,"comefrom_title":"萝莉美少女"},{"id":298880,"title":"【跨年甄选极品萝莉】超幻3D视觉爆操双马尾萝莉女友喵喵","status":1,"thumb":"https://imgmd.n123dx.xyz/doudou/doudou/md_ncusckrc/md_ncusckrc.jpg","preview":"https://imgmd.n123dx.xyz/doudou/doudou/md_ncusckrc/md_ncusckrc_sync.webp","panorama":"https://vvbacksixiuw.n123dx.xyz/doudou/doudou/md_ncusckrc/md_ncusckrc_longPreview.jpg","description":"","video_url":"https://m3md.n6uem8.xyz/doudou/doudou/md_ncusckrc/hls/1/index.m3u8","comefrom":63,"tags":[{"id":5,"name":"第一视角"},{"id":21,"name":"COSPALY"},{"id":46,"name":"裤袜"},{"id":47,"name":"美少女"},{"id":97,"name":"自拍"},{"id":99,"name":"热门推荐"}],"test_video_url":null,"try_second":180,"is_bloger":0,"is_vip":0,"comefrom_title":"萝莉美少女"},{"id":298879,"title":"【跨年甄选极品萝莉】爆操洛丽塔女友喵喵抓着双马尾疯狂输出内射","status":1,"thumb":"https://imgmd.n123dx.xyz/doudou/doudou/md_cnrusceu/md_cnrusceu.jpg","preview":"https://imgmd.n123dx.xyz/doudou/doudou/md_cnrusceu/md_cnrusceu_sync.webp","panorama":"https://vvbacksixiuw.n123dx.xyz/doudou/doudou/md_cnrusceu/md_cnrusceu_longPreview.jpg","description":"","video_url":"https://m3md.n6uem8.xyz/doudou/doudou/md_cnrusceu/hls/1/index.m3u8","comefrom":63,"tags":[{"id":5,"name":"第一视角"},{"id":21,"name":"COSPALY"},{"id":44,"name":"中出"},{"id":46,"name":"裤袜"},{"id":47,"name":"美少女"},{"id":97,"name":"自拍"},{"id":99,"name":"热门推荐"}],"test_video_url":null,"try_second":180,"is_bloger":0,"is_vip":0,"comefrom_title":"萝莉美少女"},{"id":298890,"title":"『富二代Ee哥』无套中出虐操18岁蜜桃臀萝莉女友","status":1,"thumb":"https://imgmd.n123dx.xyz/doudou/doudou/md_sfwyf83r/md_sfwyf83r.jpg","preview":"https://imgmd.n123dx.xyz/doudou/doudou/md_sfwyf83r/md_sfwyf83r_sync.webp","panorama":"https://vvbacksixiuw.n123dx.xyz/doudou/doudou/md_sfwyf83r/md_sfwyf83r_longPreview.jpg","description":"","video_url":"https://m3md.n6uem8.xyz/doudou/doudou/md_sfwyf83r/hls/1/index.m3u8","comefrom":63,"tags":[{"id":5,"name":"第一视角"},{"id":9,"name":"骑乘位"},{"id":44,"name":"中出"},{"id":46,"name":"裤袜"},{"id":47,"name":"美少女"},{"id":97,"name":"自拍"},{"id":99,"name":"热门推荐"}],"test_video_url":null,"try_second":180,"is_bloger":0,"is_vip":0,"comefrom_title":"萝莉美少女"},{"id":298887,"title":"【极品萝莉】土豪叫包养的极品小萝莉穿着洛丽塔挨操后入内射","status":1,"thumb":"https://imgmd.n123dx.xyz/doudou/doudou/md_y87cvc2w/md_y87cvc2w.jpg","preview":"https://imgmd.n123dx.xyz/doudou/doudou/md_y87cvc2w/md_y87cvc2w_sync.webp","panorama":"https://vvbacksixiuw.n123dx.xyz/doudou/doudou/md_y87cvc2w/md_y87cvc2w_longPreview.jpg","description":"","video_url":"https://m3md.n6uem8.xyz/doudou/doudou/md_y87cvc2w/hls/1/index.m3u8","comefrom":63,"tags":[{"id":5,"name":"第一视角"},{"id":21,"name":"COSPALY"},{"id":44,"name":"中出"},{"id":46,"name":"裤袜"},{"id":47,"name":"美少女"},{"id":97,"name":"自拍"},{"id":99,"name":"热门推荐"}],"test_video_url":null,"try_second":180,"is_bloger":0,"is_vip":0,"comefrom_title":"萝莉美少女"},{"id":298888,"title":"『富二代Ee哥』内射是最好的告白，中出黑丝蜜桃臀萝莉女友","status":1,"thumb":"https://imgmd.n123dx.xyz/doudou/doudou/md_5fjxwtda/md_5fjxwtda.jpg","preview":"https://imgmd.n123dx.xyz/doudou/doudou/md_5fjxwtda/md_5fjxwtda_sync.webp","panorama":"https://vvbacksixiuw.n123dx.xyz/doudou/doudou/md_5fjxwtda/md_5fjxwtda_longPreview.jpg","description":"","video_url":"https://m3md.n6uem8.xyz/doudou/doudou/md_5fjxwtda/hls/1/index.m3u8","comefrom":63,"tags":[{"id":5,"name":"第一视角"},{"id":46,"name":"裤袜"},{"id":47,"name":"美少女"},{"id":97,"name":"自拍"},{"id":99,"name":"热门推荐"}],"test_video_url":null,"try_second":180,"is_bloger":0,"is_vip":0,"comefrom_title":"萝莉美少女"},{"id":298889,"title":"『富二代Ee哥』极品蜜桃臀萝莉女友双马尾蒙眼无套虐操","status":1,"thumb":"https://imgmd.n123dx.xyz/doudou/doudou/md_nu2gxvpj/md_nu2gxvpj.jpg","preview":"https://imgmd.n123dx.xyz/doudou/doudou/md_nu2gxvpj/md_nu2gxvpj_sync.webp","panorama":"https://vvbacksixiuw.n123dx.xyz/doudou/doudou/md_nu2gxvpj/md_nu2gxvpj_longPreview.jpg","description":"","video_url":"https://m3md.n6uem8.xyz/doudou/doudou/md_nu2gxvpj/hls/1/index.m3u8","comefrom":63,"tags":[{"id":5,"name":"第一视角"},{"id":46,"name":"裤袜"},{"id":47,"name":"美少女"},{"id":97,"name":"自拍"},{"id":99,"name":"热门推荐"}],"test_video_url":null,"try_second":180,"is_bloger":0,"is_vip":0,"comefrom_title":"萝莉美少女"}]}}